  CHPI	    EP	    12	    24	    36	    48	    60	    72	    84	    96	   108	   120	   132	   144	   156	   168
-127.5	-117.5	  -6.6	  -7.0	  -9.2	 -12.7	 -11.7	 -12.6	 -17.1	 -16.2	 -14.8	 -22.0	   nan	   nan	   nan	   nan
-117.5	-107.5	  -6.6	  -7.0	  -9.2	 -12.7	 -11.7	 -12.6	 -17.1	 -16.2	 -14.8	 -22.0	   nan	   nan	   nan	   nan
-107.5	 -97.5	  -6.6	  -7.0	  -9.2	 -12.7	 -11.7	 -12.6	 -17.1	 -16.2	 -14.8	 -22.0	   nan	   nan	   nan	   nan
 -97.5	 -87.5	  -6.6	  -7.0	  -9.2	 -12.7	 -11.7	 -12.6	 -17.1	 -16.2	 -14.8	 -22.0	   nan	   nan	   nan	   nan
 -87.5	 -77.5	  -6.6	  -7.0	  -9.2	 -12.7	 -11.7	 -12.6	 -17.1	 -16.2	 -14.8	 -23.4	   nan	   nan	   nan	   nan
 -77.5	 -67.5	  -6.6	  -7.0	  -9.2	 -12.7	 -12.7	 -18.6	 -17.6	 -11.9	  -6.2	   1.7	   nan	   nan	   nan	   nan
 -67.5	 -57.5	  -6.6	  -7.0	  -9.2	 -12.6	 -17.7	 -13.8	  -9.2	  -3.7	  -7.0	  -7.3	   nan	   nan	   nan	   nan
 -57.5	 -47.5	  -6.6	  -7.0	  -5.1	 -10.6	  -8.3	  -9.3	  -5.5	  -8.1	  -3.5	  -5.9	   nan	   nan	   nan	   nan
 -47.5	 -37.5	  -6.6	  -8.2	  -7.5	  -7.9	  -6.6	  -4.3	  -4.1	  -1.1	  -2.1	  -4.3	   nan	   nan	   nan	   nan
 -37.5	 -27.5	  -6.6	  -6.6	  -6.9	  -6.3	  -5.1	  -5.9	  -7.5	  -8.1	  -8.0	  -6.3	   nan	   nan	   nan	   nan
 -27.5	 -17.5	  -6.5	  -2.3	  -1.1	  -2.5	  -4.8	  -5.5	  -4.9	  -6.5	  -3.7	  -2.9	   nan	   nan	   nan	   nan
 -17.5	  -7.5	  -2.6	  -0.5	  -2.4	  -5.5	  -5.6	  -4.4	  -5.8	  -5.9	  -5.5	  -8.7	   nan	   nan	   nan	   nan
  -7.5	  -2.5	  -0.9	  -0.9	  -0.5	  -1.8	  -0.1	  -1.1	  -3.9	  -2.2	  -1.7	  -1.1	   nan	   nan	   nan	   nan
  -2.5	   2.5	   0.2	   0.5	   1.8	   4.8	   4.2	   5.3	   9.3	   4.9	   2.5	   1.6	   nan	   nan	   nan	   nan
   2.5	   7.5	   0.3	   0.7	   4.9	   5.3	   8.2	   7.4	   4.8	   2.6	   6.7	   5.5	   nan	   nan	   nan	   nan
   7.5	  17.5	   3.3	   3.4	   4.1	   5.0	   4.2	   6.7	  10.5	  11.5	  12.5	  19.7	   nan	   nan	   nan	   nan
  17.5	  27.5	   7.8	   8.2	   8.4	   8.2	   7.6	   9.6	   8.9	  19.2	  17.3	  11.4	   nan	   nan	   nan	   nan
  27.5	  37.5	   8.4	  15.2	  13.5	  13.2	  18.6	  21.2	  20.4	  14.1	  14.1	  22.8	   nan	   nan	   nan	   nan
  37.5	  47.5	   8.4	  18.7	  19.2	  20.8	  16.5	  15.9	  18.5	  22.1	  16.2	  26.9	   nan	   nan	   nan	   nan
  47.5	  57.5	   8.4	  18.7	  28.8	  20.0	  18.9	  16.0	  18.1	  18.4	  14.3	  16.7	   nan	   nan	   nan	   nan
  57.5	  67.5	   8.4	  18.7	  27.9	  28.9	  27.8	  20.8	  17.1	  13.7	  12.4	  22.4	   nan	   nan	   nan	   nan
  67.5	  77.5	   8.4	  18.7	  27.9	  28.9	  27.8	  20.8	  17.1	  13.7	  12.4	  22.4	   nan	   nan	   nan	   nan
  77.5	  87.5	   8.4	  18.7	  27.9	  28.9	  27.8	  20.8	  17.1	  13.7	  12.4	  22.4	   nan	   nan	   nan	   nan
  87.5	  97.5	   8.4	  18.7	  27.9	  28.9	  27.8	  20.8	  17.1	  13.7	  12.4	  22.4	   nan	   nan	   nan	   nan
  97.5	 107.5	   8.4	  18.7	  27.9	  28.9	  27.8	  20.8	  17.1	  13.7	  12.4	  22.4	   nan	   nan	   nan	   nan
 107.5	 117.5	   8.4	  18.7	  27.9	  28.9	  27.8	  20.8	  17.1	  13.7	  12.4	  22.4	   nan	   nan	   nan	   nan
 117.5	 127.5	   8.4	  18.7	  27.9	  28.9	  27.8	  20.8	  17.1	  13.7	  12.4	  22.4	   nan	   nan	   nan	   nan
