  DSHP	    AL	    12	    24	    36	    48	    60	    72	    84	    96	   108	   120	   132	   144	   156	   168
-127.5	-117.5	   0.5	  -1.3	  -0.9	  -1.7	  -5.0	  -7.0	 -10.5	  -9.9	 -10.0	 -10.0	 -20.4	 -20.0	 -19.2	 -19.2
-117.5	-107.5	   0.5	  -1.3	  -0.9	  -1.7	  -5.0	  -7.0	 -10.5	  -9.9	 -10.0	 -10.0	 -20.4	 -20.0	 -19.2	 -19.2
-107.5	 -97.5	   0.5	  -1.3	  -0.9	  -1.7	  -5.0	  -7.0	 -10.5	  -9.9	 -10.0	 -10.0	 -20.4	 -20.0	 -19.2	 -18.6
 -97.5	 -87.5	   0.5	  -1.3	  -0.9	  -1.7	  -5.0	  -7.0	 -10.5	  -9.9	 -10.0	  -9.8	 -20.4	 -20.0	 -19.7	 -17.4
 -87.5	 -77.5	   0.5	  -1.3	  -0.9	  -1.7	  -5.0	  -7.0	 -10.6	 -10.1	 -10.1	  -9.9	 -20.4	 -20.0	   nan	   nan
 -77.5	 -67.5	   0.5	  -1.3	  -0.9	  -1.7	  -5.4	  -6.8	 -10.6	 -10.5	 -10.3	 -11.8	 -20.4	 -20.0	   nan	   nan
 -67.5	 -57.5	   0.5	  -1.3	  -0.9	  -1.8	  -6.4	  -6.0	  -8.6	  -9.7	  -9.7	 -12.6	 -19.8	 -19.1	   nan	   nan
 -57.5	 -47.5	   0.5	  -1.4	  -0.9	  -2.4	  -6.4	  -4.7	  -5.3	  -6.4	  -7.0	  -8.6	 -17.1	 -15.4	   nan	   nan
 -47.5	 -37.5	   0.5	  -1.9	  -0.9	  -2.9	  -5.2	  -3.4	  -3.5	  -3.5	  -4.1	  -4.9	 -13.4	 -11.4	   nan	   nan
 -37.5	 -27.5	   0.3	  -2.2	  -1.4	  -3.2	  -4.6	  -2.4	  -3.0	  -3.2	  -3.0	  -5.3	 -11.3	 -11.0	   nan	   nan
 -27.5	 -17.5	  -0.1	  -1.9	  -2.2	  -3.1	  -4.0	  -2.2	  -2.7	  -3.7	  -3.5	  -5.7	 -10.8	 -11.4	   nan	   nan
 -17.5	  -7.5	  -0.6	  -1.7	  -2.5	  -2.7	  -2.9	  -2.3	  -3.0	  -4.3	  -4.5	  -6.0	 -12.0	  -9.7	   nan	   nan
  -7.5	  -2.5	  -0.5	  -1.0	  -1.7	  -1.8	  -1.9	  -3.2	  -4.4	  -5.5	  -6.5	  -8.7	 -12.8	 -11.4	   nan	   nan
  -2.5	   2.5	  -0.3	  -0.1	  -0.3	  -0.7	  -1.2	  -4.5	  -5.5	  -5.9	  -8.6	 -11.6	 -11.0	 -17.2	   nan	   nan
   2.5	   7.5	  -0.4	  -0.1	   0.1	  -0.4	  -0.8	  -3.7	  -4.7	  -5.1	  -8.6	 -11.5	  -8.8	 -16.8	   nan	   nan
   7.5	  17.5	  -0.7	  -1.0	  -1.3	  -1.2	  -1.2	  -2.0	  -3.0	  -4.0	  -6.4	  -9.0	  -5.2	  -9.3	   nan	   nan
  17.5	  27.5	  -0.7	  -1.7	  -3.2	  -2.9	  -2.5	  -1.8	  -2.4	  -3.3	  -3.7	  -5.0	  -0.2	  -2.5	   nan	   nan
  27.5	  37.5	  -0.7	  -1.8	  -4.5	  -5.2	  -5.0	  -3.4	  -2.6	  -2.5	  -2.3	  -1.2	   1.3	  -0.6	   nan	   nan
  37.5	  47.5	  -0.7	  -1.9	  -4.8	  -7.5	  -7.7	  -6.6	  -3.6	  -2.0	  -2.2	   0.1	  -1.7	  -3.0	   nan	   nan
  47.5	  57.5	  -0.7	  -1.9	  -4.6	  -8.7	  -8.9	  -9.6	  -5.6	  -2.1	  -0.6	  -0.0	  -3.5	  -2.7	   nan	   nan
  57.5	  67.5	  -0.7	  -1.9	  -4.6	  -9.0	  -8.8	 -11.0	  -7.1	  -1.6	   2.8	   0.8	  -2.3	   1.5	   nan	   nan
  67.5	  77.5	  -0.7	  -1.9	  -4.6	  -9.1	  -8.8	 -11.3	  -7.5	  -1.0	   4.9	   1.7	  -1.1	   3.1	   nan	   nan
  77.5	  87.5	  -0.7	  -1.9	  -4.6	  -9.1	  -8.8	 -11.4	  -7.6	  -0.9	   5.4	   2.0	  -0.8	   2.7	   nan	   nan
  87.5	  97.5	  -0.7	  -1.9	  -4.6	  -9.1	  -8.8	 -11.4	  -7.7	  -0.9	   5.6	   2.0	  -0.7	   2.6	   nan	   nan
  97.5	 107.5	  -0.7	  -1.9	  -4.6	  -9.1	  -8.8	 -11.5	  -7.7	  -0.8	   5.6	   2.0	  -0.7	   2.6	   nan	   nan
 107.5	 117.5	  -0.7	  -1.9	  -4.6	  -9.1	  -8.8	 -11.5	  -7.7	  -0.8	   5.6	   2.0	  -0.7	   2.6	   nan	   nan
 117.5	 127.5	  -0.7	  -1.9	  -4.6	  -9.1	  -8.8	 -11.5	  -7.7	  -0.8	   5.6	   2.0	  -0.7	   2.6	   nan	   nan
