  DSHP	    EP	    12	    24	    36	    48	    60	    72	    84	    96	   108	   120	   132	   144	   156	   168
-127.5	-117.5	   0.3	  -3.6	  -2.5	  -0.9	   1.3	  -0.8	   2.5	   1.1	  -1.4	  -2.9	   4.5	   0.5	  -6.0	 -10.0
-117.5	-107.5	   0.3	  -3.6	  -2.5	  -0.9	   1.3	  -0.8	   2.5	   1.1	  -1.4	  -2.9	   4.5	   0.5	  -6.0	 -10.0
-107.5	 -97.5	   0.3	  -3.6	  -2.5	  -0.9	   1.3	  -0.8	   2.5	   1.1	  -1.7	  -3.3	   4.5	   0.5	  -6.0	 -10.0
 -97.5	 -87.5	   0.3	  -3.6	  -2.5	  -0.9	   1.3	  -0.8	   2.5	   0.6	  -3.2	  -4.6	   4.5	   0.5	  -6.0	 -10.0
 -87.5	 -77.5	   0.3	  -3.6	  -2.5	  -0.9	   1.3	  -0.9	   1.2	  -2.1	  -6.2	  -6.6	   4.4	   0.5	  -6.0	 -10.0
 -77.5	 -67.5	   0.3	  -3.6	  -2.5	  -0.7	   1.0	  -1.8	  -3.2	  -7.6	  -9.4	  -8.4	   3.2	   0.5	  -6.0	 -10.0
 -67.5	 -57.5	   0.3	  -3.6	  -2.2	   0.1	  -0.4	  -4.5	  -9.2	 -12.3	 -10.8	  -9.6	   0.1	   0.5	  -6.0	 -10.0
 -57.5	 -47.5	   0.3	  -3.5	  -1.2	   0.0	  -3.0	  -7.6	 -11.5	 -12.1	 -10.1	  -9.3	  -2.1	   0.3	  -6.0	 -10.0
 -47.5	 -37.5	   0.3	  -3.0	  -0.3	  -2.3	  -5.6	  -8.0	  -9.1	  -8.2	  -7.4	  -7.4	  -3.1	  -1.9	  -6.1	  -9.7
 -37.5	 -27.5	   0.3	  -2.0	  -1.0	  -4.3	  -5.8	  -5.6	  -4.7	  -4.1	  -4.4	  -4.6	  -7.5	  -8.5	  -7.1	  -8.3
 -27.5	 -17.5	   0.1	  -1.1	  -2.0	  -3.5	  -3.6	  -2.9	  -1.2	  -1.9	  -3.5	  -2.9	 -15.4	 -14.6	  -9.5	  -6.8
 -17.5	  -7.5	  -0.2	  -0.9	  -1.7	  -1.6	  -1.2	  -0.2	   0.2	  -1.8	  -3.7	  -3.9	 -18.5	 -13.3	 -13.3	  -9.0
  -7.5	  -2.5	  -0.3	  -0.9	  -1.0	  -0.4	   0.5	   2.4	   1.1	  -1.2	  -3.0	  -5.6	 -13.9	 -10.9	   nan	   nan
  -2.5	   2.5	  -0.2	  -0.5	  -0.5	   0.3	   2.0	   4.1	   2.6	   0.2	  -2.0	  -4.3	  -7.6	  -8.2	   nan	   nan
   2.5	   7.5	  -0.4	  -0.4	  -0.1	   0.5	   3.0	   4.4	   3.1	   0.8	  -0.8	  -1.7	  -1.4	  -0.1	   nan	   nan
   7.5	  17.5	  -0.7	  -0.9	  -0.9	  -0.3	   2.5	   4.0	   3.3	   1.9	   0.2	  -1.2	   4.3	   6.3	   nan	   nan
  17.5	  27.5	  -0.8	  -0.5	  -1.8	  -1.4	   0.5	   2.9	   3.8	   3.6	   1.0	  -1.5	   8.6	   9.1	   nan	   nan
  27.5	  37.5	  -0.8	   0.9	  -0.5	  -1.6	  -1.1	   1.2	   3.4	   3.5	   2.8	   0.4	  12.0	  10.5	   nan	   nan
  37.5	  47.5	  -0.8	   2.0	   2.5	  -0.6	  -0.9	  -1.0	   1.5	   2.5	   4.2	   2.3	   9.0	   5.9	   nan	   nan
  47.5	  57.5	  -0.8	   2.4	   5.0	   2.6	   0.7	  -0.8	   2.3	   3.3	   4.2	   2.2	  -0.4	  -2.2	   nan	   nan
  57.5	  67.5	  -0.8	   2.6	   6.1	   7.5	   3.8	   4.6	   7.3	   6.5	   5.1	   2.0	  -6.9	  -6.9	   nan	   nan
  67.5	  77.5	  -0.8	   2.6	   6.4	  10.6	   7.8	  11.2	  11.6	   9.7	   6.5	   2.1	  -8.5	  -8.1	   nan	   nan
  77.5	  87.5	  -0.8	   2.6	   6.5	  11.4	  10.2	  14.4	  13.1	  11.2	   7.2	   2.0	  -8.9	  -8.4	   nan	   nan
  87.5	  97.5	  -0.8	   2.6	   6.5	  11.6	  10.8	  15.2	  13.5	  11.6	   7.4	   1.9	  -9.0	  -8.5	   nan	   nan
  97.5	 107.5	  -0.8	   2.6	   6.5	  11.6	  10.9	  15.4	  13.6	  11.7	   7.5	   1.9	  -9.0	  -8.5	   nan	   nan
 107.5	 117.5	  -0.8	   2.6	   6.5	  11.6	  11.0	  15.4	  13.6	  11.7	   7.5	   1.9	  -9.0	  -8.5	   nan	   nan
 117.5	 127.5	  -0.8	   2.6	   6.5	  11.6	  11.0	  15.5	  13.6	  11.7	   7.5	   1.9	  -9.0	  -8.5	   nan	   nan
