NAME,      Bias,   Uncrt,   InCon
BEST,      0,      0,       0, 
OFCL,      0,      0,       0,
CHPI,      0,      0,       0, 
AVNI,      1,      1,       1, 
CTCI,      1,      1,       1, 
HWFI,      1,      1,       1, 
LGEM,      1,      1,       1,
DSHP,      1,      1,       1,
HMNI,      1,      1,       1,
