NAME,      COLOR,          DASH     MARKER    LENGTH   DESC
BEST,      Black,          0,       16,       120,          ,
OFCL,      Black,          0,       4,        120,          ,
CHPI,      Red,            0,       16,       132,          ,
AVNI,      Orange,         0,       5,        168,          ,
CTCI,      firebrick,      0,       10,       132,          ,
EMXI,      magenta,        0,       2,        168,          ,
HWFI,      green,	   0,       9,        132,          ,
LGEM,      gray,           0,       1,        168,          ,
DSHP,      dodgerblue,     0,       7,        168,          ,
HMNI,      turquoise,      0,       11,       132,          ,
CONS,      Blue,           0,        5,       168,          ,
