AL, 11, 2019091700, 01, CARQ,   0, 273N,  950W,  20, 1010, DB,  34, NEQ,    0,    0,    0,    0, 1012,  150,  90,   0,   0,   L,   0,   X, 275,   7,     INVEST, S, 
AL, 11, 2019091700, 01, CARQ,   0, 273N,  950W,  20, 1010, DB,  50, NEQ,    0,    0,    0,    0, 1012,  150,  90,   0,   0,   L,   0,   X, 275,   7,     INVEST, S, 
AL, 11, 2019091700, 01, CARQ,   0, 273N,  950W,  20, 1010, DB,  64, NEQ,    0,    0,    0,    0, 1012,  150,  90,   0,   0,   L,   0,   X, 275,   7,     INVEST, S, 
AL, 11, 2019091706, 01, CARQ,   0, 278N,  960W,  20, 1010, DB,  34, NEQ,    0,    0,    0,    0, 1012,  150,  90,   0,   0,   L,   0,   X, 290,   8,     INVEST, S, 
AL, 11, 2019091706, 01, CARQ,   0, 278N,  960W,  20, 1010, DB,  50, NEQ,    0,    0,    0,    0, 1012,  150,  90,   0,   0,   L,   0,   X, 290,   8,     INVEST, S, 
AL, 11, 2019091706, 01, CARQ,   0, 278N,  960W,  20, 1010, DB,  64, NEQ,    0,    0,    0,    0, 1012,  150,  90,   0,   0,   L,   0,   X, 290,   8,     INVEST, S, 
AL, 11, 2019091712, 01, CARQ,   0, 282N,  960W,  25, 1009, DB,  34, NEQ,    0,    0,    0,    0, 1011,  150,  90,   0,   0,   L,   0,   X, 305,   6,     INVEST, S, 
AL, 11, 2019091712, 01, CARQ,   0, 282N,  960W,  25, 1009, DB,  50, NEQ,    0,    0,    0,    0, 1011,  150,  90,   0,   0,   L,   0,   X, 305,   6,     INVEST, S, 
AL, 11, 2019091712, 01, CARQ,   0, 282N,  960W,  25, 1009, DB,  64, NEQ,    0,    0,    0,    0, 1011,  150,  90,   0,   0,   L,   0,   X, 305,   6,     INVEST, S, 
AL, 11, 2019091718, 01, CARQ,   0, 290N,  953W,  35, 1006, TS,  34, NEQ,    0,   40,    0,    0, 1013,  100,  25,   0,   0,   L,   0,   X,   5,   6,     IMELDA, M, 
AL, 11, 2019091718, 01, CARQ,   0, 290N,  953W,  35, 1006, TS,  50, NEQ,    0,    0,    0,    0, 1013,  100,  25,   0,   0,   L,   0,   X,   5,   6,     IMELDA, M, 
AL, 11, 2019091718, 01, CARQ,   0, 290N,  953W,  35, 1006, TS,  64, NEQ,    0,    0,    0,    0, 1013,  100,  25,   0,   0,   L,   0,   X,   5,   6,     IMELDA, M, 
AL, 11, 2019091800, 01, CARQ,   0, 296N,  955W,  30, 1007, TD,  34, NEQ,    0,    0,    0,    0, 1012,  100,  25,   0,   0,   L,   0,   X, 350,   6,     IMELDA, M, 
AL, 11, 2019091800, 01, CARQ,   0, 296N,  955W,  30, 1007, TD,  50, NEQ,    0,    0,    0,    0, 1012,  100,  25,   0,   0,   L,   0,   X, 350,   6,     IMELDA, M, 
AL, 11, 2019091800, 01, CARQ,   0, 296N,  955W,  30, 1007, TD,  64, NEQ,    0,    0,    0,    0, 1012,  100,  25,   0,   0,   L,   0,   X, 350,   6,     IMELDA, M, 
AL, 11, 2019091806, 01, CARQ,   0, 299N,  956W,  25, 1007, TD,  34, NEQ,    0,    0,    0,    0, 1011,   70,  65,   0,   0,   L,   0,   X,   5,   5,     IMELDA, M, 
AL, 11, 2019091806, 01, CARQ,   0, 299N,  956W,  25, 1007, TD,  50, NEQ,    0,    0,    0,    0, 1011,   70,  65,   0,   0,   L,   0,   X,   5,   5,     IMELDA, M, 
AL, 11, 2019091806, 01, CARQ,   0, 299N,  956W,  25, 1007, TD,  64, NEQ,    0,    0,    0,    0, 1011,   70,  65,   0,   0,   L,   0,   X,   5,   5,     IMELDA, M, 
AL, 11, 2019091812, 01, CARQ,   0, 304N,  956W,  25, 1009, TD,  34, NEQ,    0,    0,    0,    0, 1011,   70,  40,   0,   0,   L,   0,   X, 355,   5,     IMELDA, M, 
AL, 11, 2019091812, 01, CARQ,   0, 304N,  956W,  25, 1009, TD,  50, NEQ,    0,    0,    0,    0, 1011,   70,  40,   0,   0,   L,   0,   X, 355,   5,     IMELDA, M, 
AL, 11, 2019091812, 01, CARQ,   0, 304N,  956W,  25, 1009, TD,  64, NEQ,    0,    0,    0,    0, 1011,   70,  40,   0,   0,   L,   0,   X, 355,   5,     IMELDA, M, 
AL, 11, 2019091818, 01, CARQ,   0, 306N,  950W,  25, 1010, TD,  34, NEQ,    0,    0,    0,    0, 1011,  140, 135,   0,   0,   L,   0,   X,  25,   4,     IMELDA, M, 
AL, 11, 2019091818, 01, CARQ,   0, 306N,  950W,  25, 1010, TD,  50, NEQ,    0,    0,    0,    0, 1011,  140, 135,   0,   0,   L,   0,   X,  25,   4,     IMELDA, M, 
AL, 11, 2019091818, 01, CARQ,   0, 306N,  950W,  25, 1010, TD,  64, NEQ,    0,    0,    0,    0, 1011,  140, 135,   0,   0,   L,   0,   X,  25,   4,     IMELDA, M, 
AL, 11, 2019091900, 01, CARQ,   0, 311N,  948W,  25, 1008, TD,  34, NEQ,    0,    0,    0,    0, 1010,  140, 135,   0,   0,   L,   0,   X,  30,   5,     IMELDA, M, 
AL, 11, 2019091900, 01, CARQ,   0, 311N,  948W,  25, 1008, TD,  50, NEQ,    0,    0,    0,    0, 1010,  140, 135,   0,   0,   L,   0,   X,  30,   5,     IMELDA, M, 
AL, 11, 2019091900, 01, CARQ,   0, 311N,  948W,  25, 1008, TD,  64, NEQ,    0,    0,    0,    0, 1010,  140, 135,   0,   0,   L,   0,   X,  30,   5,     IMELDA, M, 
AL, 11, 2019091906, 01, CARQ,   0, 311N,  954W,  25, 1009, TD,  34, NEQ,    0,    0,    0,    0, 1010,  140, 100,   0,   0,   L,   0,   X,  15,   2,     IMELDA, M, 
AL, 11, 2019091906, 01, CARQ,   0, 311N,  954W,  25, 1009, TD,  50, NEQ,    0,    0,    0,    0, 1010,  140, 100,   0,   0,   L,   0,   X,  15,   2,     IMELDA, M, 
AL, 11, 2019091906, 01, CARQ,   0, 311N,  954W,  25, 1009, TD,  64, NEQ,    0,    0,    0,    0, 1010,  140, 100,   0,   0,   L,   0,   X,  15,   2,     IMELDA, M, 
AL, 11, 2019091912, 01, CARQ,   0, 303N,  953W,  25, 1009, TD,  34, NEQ,    0,    0,    0,    0, 1010,  140, 100,   0,   0,   L,   0,   X, 220,   1,     IMELDA, M, 
AL, 11, 2019091912, 01, CARQ,   0, 303N,  953W,  25, 1009, TD,  50, NEQ,    0,    0,    0,    0, 1010,  140, 100,   0,   0,   L,   0,   X, 220,   1,     IMELDA, M, 
AL, 11, 2019091912, 01, CARQ,   0, 303N,  953W,  25, 1009, TD,  64, NEQ,    0,    0,    0,    0, 1010,  140, 100,   0,   0,   L,   0,   X, 220,   1,     IMELDA, M, 
AL, 11, 2019091918, 01, CARQ,   0, 311N,  958W,  15, 1010, DB,  34, NEQ,    0,    0,    0,    0, 1010,  150, 120,   0,   0,   L,   0,   X, 270,   3,     IMELDA, M, 
AL, 11, 2019091918, 01, CARQ,   0, 311N,  958W,  15, 1010, DB,  50, NEQ,    0,    0,    0,    0, 1010,  150, 120,   0,   0,   L,   0,   X, 270,   3,     IMELDA, M, 
AL, 11, 2019091918, 01, CARQ,   0, 311N,  958W,  15, 1010, DB,  64, NEQ,    0,    0,    0,    0, 1010,  150, 120,   0,   0,   L,   0,   X, 270,   3,     IMELDA, M, 
AL, 11, 2019091712, 03, AEMI,   0, 282N,  960W,  25,    0,   ,  34, NEQ,    0,    0,    0,    0,    0,    0,   0,   0,   0,    ,   0,    ,   0,   0,           ,  ,  
AL, 11, 2019091712, 03, AEMI,  12, 293N,  960W,  24,    0,   ,  34, NEQ,    0,    0,    0,    0,    0,    0,   0,   0,   0,    ,   0,    ,   0,   0,           ,  ,  
AL, 11, 2019091712, 03, AEMI,  24, 300N,  962W,  22,    0,   ,  34, NEQ,    0,    0,    0,    0,    0,    0,   0,   0,   0,    ,   0,    ,   0,   0,           ,  ,  
AL, 11, 2019091712, 03, AEMI,  36, 306N,  964W,  20,    0,   ,  34, NEQ,    0,    0,    0,    0,    0,    0,   0,   0,   0,    ,   0,    ,   0,   0,           ,  ,  
AL, 11, 2019091712, 03, AEMI,  48, 314N,  969W,  19,    0,   ,  34, NEQ,    0,    0,    0,    0,    0,    0,   0,   0,   0,    ,   0,    ,   0,   0,           ,  ,  
AL, 11, 2019091712, 03, AEMI,  60, 328N,  977W,  20,    0,   ,  34, NEQ,    0,    0,    0,    0,    0,    0,   0,   0,   0,    ,   0,    ,   0,   0,           ,  ,  
AL, 11, 2019091712, 03, AEMI,  72, 351N,  983W,  20,    0,   ,  34, NEQ,    0,    0,    0,    0,    0,    0,   0,   0,   0,    ,   0,    ,   0,   0,           ,  ,  
AL, 11, 2019091712, 03, AEMI,  84, 374N,  989W,  21,    0,   ,  34, NEQ,    0,    0,    0,    0,    0,    0,   0,   0,   0,    ,   0,    ,   0,   0,           ,  ,  
AL, 11, 2019091718, 03, AEMI,   0, 290N,  953W,  35,    0,   ,  34, NEQ,    0,    0,    0,    0,    0,    0,   0,   0,   0,    ,   0,    ,   0,   0,           ,  ,  
AL, 11, 2019091718, 03, AEMI,  12, 302N,  954W,  31,    0,   ,  34, NEQ,    0,    0,    0,    0,    0,    0,   0,   0,   0,    ,   0,    ,   0,   0,           ,  ,  
AL, 11, 2019091718, 03, AEMI,  24, 311N,  955W,  28,    0,   ,  34, NEQ,    0,    0,    0,    0,    0,    0,   0,   0,   0,    ,   0,    ,   0,   0,           ,  ,  
AL, 11, 2019091718, 03, AEMI,  36, 318N,  957W,  27,    0,   ,  34, NEQ,    0,    0,    0,    0,    0,    0,   0,   0,   0,    ,   0,    ,   0,   0,           ,  ,  
AL, 11, 2019091718, 03, AEMI,  48, 329N,  959W,  26,    0,   ,  34, NEQ,    0,    0,    0,    0,    0,    0,   0,   0,   0,    ,   0,    ,   0,   0,           ,  ,  
AL, 11, 2019091718, 03, AEMI,  60, 347N,  960W,  26,    0,   ,  34, NEQ,    0,    0,    0,    0,    0,    0,   0,   0,   0,    ,   0,    ,   0,   0,           ,  ,  
AL, 11, 2019091718, 03, AEMI,  72, 374N,  955W,  29,    0,   ,  34, NEQ,    0,    0,    0,    0,    0,    0,   0,   0,   0,    ,   0,    ,   0,   0,           ,  ,  
AL, 11, 2019091718, 03, AEMI,  84, 402N,  950W,  32,    0,   ,  34, NEQ,    0,    0,    0,    0,    0,    0,   0,   0,   0,    ,   0,    ,   0,   0,           ,  ,  
AL, 11, 2019091800, 03, AEMI,   0, 296N,  955W,  30,    0,   ,  34, NEQ,    0,    0,    0,    0,    0,    0,   0,   0,   0,    ,   0,    ,   0,   0,           ,  ,  
AL, 11, 2019091800, 03, AEMI,  12, 305N,  957W,  27,    0,   ,  34, NEQ,    0,    0,    0,    0,    0,    0,   0,   0,   0,    ,   0,    ,   0,   0,           ,  ,  
AL, 11, 2019091800, 03, AEMI,  24, 312N,  958W,  24,    0,   ,  34, NEQ,    0,    0,    0,    0,    0,    0,   0,   0,   0,    ,   0,    ,   0,   0,           ,  ,  
AL, 11, 2019091800, 03, AEMI,  36, 321N,  961W,  24,    0,   ,  34, NEQ,    0,    0,    0,    0,    0,    0,   0,   0,   0,    ,   0,    ,   0,   0,           ,  ,  
AL, 11, 2019091800, 03, AEMI,  48, 336N,  967W,  24,    0,   ,  34, NEQ,    0,    0,    0,    0,    0,    0,   0,   0,   0,    ,   0,    ,   0,   0,           ,  ,  
AL, 11, 2019091800, 03, AEMI,  60, 357N,  970W,  24,    0,   ,  34, NEQ,    0,    0,    0,    0,    0,    0,   0,   0,   0,    ,   0,    ,   0,   0,           ,  ,  
AL, 11, 2019091800, 03, AEMI,  72, 378N,  961W,  25,    0,   ,  34, NEQ,    0,    0,    0,    0,    0,    0,   0,   0,   0,    ,   0,    ,   0,   0,           ,  ,  
AL, 11, 2019091800, 03, AEMI,  84, 400N,  953W,  25,    0,   ,  34, NEQ,    0,    0,    0,    0,    0,    0,   0,   0,   0,    ,   0,    ,   0,   0,           ,  ,  
AL, 11, 2019091806, 03, AEMI,   0, 299N,  956W,  25,    0,   ,  34, NEQ,    0,    0,    0,    0,    0,    0,   0,   0,   0,    ,   0,    ,   0,   0,           ,  ,  
AL, 11, 2019091806, 03, AEMI,  12, 309N,  956W,  23,    0,   ,  34, NEQ,    0,    0,    0,    0,    0,    0,   0,   0,   0,    ,   0,    ,   0,   0,           ,  ,  
AL, 11, 2019091806, 03, AEMI,  24, 317N,  958W,  21,    0,   ,  34, NEQ,    0,    0,    0,    0,    0,    0,   0,   0,   0,    ,   0,    ,   0,   0,           ,  ,  
AL, 11, 2019091806, 03, AEMI,  36, 325N,  959W,  21,    0,   ,  34, NEQ,    0,    0,    0,    0,    0,    0,   0,   0,   0,    ,   0,    ,   0,   0,           ,  ,  
AL, 11, 2019091806, 03, AEMI,  48, 340N,  963W,  20,    0,   ,  34, NEQ,    0,    0,    0,    0,    0,    0,   0,   0,   0,    ,   0,    ,   0,   0,           ,  ,  
AL, 11, 2019091806, 03, AEMI,  60, 360N,  963W,  22,    0,   ,  34, NEQ,    0,    0,    0,    0,    0,    0,   0,   0,   0,    ,   0,    ,   0,   0,           ,  ,  
AL, 11, 2019091806, 03, AEMI,  72, 380N,  963W,  23,    0,   ,  34, NEQ,    0,    0,    0,    0,    0,    0,   0,   0,   0,    ,   0,    ,   0,   0,           ,  ,  
AL, 11, 2019091812, 03, AEMI,   0, 304N,  956W,  25,    0,   ,  34, NEQ,    0,    0,    0,    0,    0,    0,   0,   0,   0,    ,   0,    ,   0,   0,           ,  ,  
AL, 11, 2019091812, 03, AEMI,  12, 313N,  957W,  22,    0,   ,  34, NEQ,    0,    0,    0,    0,    0,    0,   0,   0,   0,    ,   0,    ,   0,   0,           ,  ,  
AL, 11, 2019091812, 03, AEMI,  24, 320N,  962W,  21,    0,   ,  34, NEQ,    0,    0,    0,    0,    0,    0,   0,   0,   0,    ,   0,    ,   0,   0,           ,  ,  
AL, 11, 2019091812, 03, AEMI,  36, 333N,  969W,  23,    0,   ,  34, NEQ,    0,    0,    0,    0,    0,    0,   0,   0,   0,    ,   0,    ,   0,   0,           ,  ,  
AL, 11, 2019091812, 03, AEMI,  48, 346N,  977W,  25,    0,   ,  34, NEQ,    0,    0,    0,    0,    0,    0,   0,   0,   0,    ,   0,    ,   0,   0,           ,  ,  
AL, 11, 2019091818, 03, AEMI,   0, 306N,  950W,  25,    0,   ,  34, NEQ,    0,    0,    0,    0,    0,    0,   0,   0,   0,    ,   0,    ,   0,   0,           ,  ,  
AL, 11, 2019091818, 03, AEMI,  12, 313N,  950W,  24,    0,   ,  34, NEQ,    0,    0,    0,    0,    0,    0,   0,   0,   0,    ,   0,    ,   0,   0,           ,  ,  
AL, 11, 2019091818, 03, AEMI,  24, 321N,  953W,  22,    0,   ,  34, NEQ,    0,    0,    0,    0,    0,    0,   0,   0,   0,    ,   0,    ,   0,   0,           ,  ,  
AL, 11, 2019091818, 03, AEMI,  36, 335N,  958W,  20,    0,   ,  34, NEQ,    0,    0,    0,    0,    0,    0,   0,   0,   0,    ,   0,    ,   0,   0,           ,  ,  
AL, 11, 2019091818, 03, AEMI,  48, 350N,  963W,  17,    0,   ,  34, NEQ,    0,    0,    0,    0,    0,    0,   0,   0,   0,    ,   0,    ,   0,   0,           ,  ,  
AL, 11, 2019091900, 03, AEMI,   0, 311N,  948W,  25,    0,   ,  34, NEQ,    0,    0,    0,    0,    0,    0,   0,   0,   0,    ,   0,    ,   0,   0,           ,  ,  
AL, 11, 2019091900, 03, AEMI,  12, 318N,  951W,  24,    0,   ,  34, NEQ,    0,    0,    0,    0,    0,    0,   0,   0,   0,    ,   0,    ,   0,   0,           ,  ,  
AL, 11, 2019091900, 03, AEMI,  24, 331N,  961W,  24,    0,   ,  34, NEQ,    0,    0,    0,    0,    0,    0,   0,   0,   0,    ,   0,    ,   0,   0,           ,  ,  
AL, 11, 2019091900, 03, AEMI,  36, 355N,  977W,  22,    0,   ,  34, NEQ,    0,    0,    0,    0,    0,    0,   0,   0,   0,    ,   0,    ,   0,   0,           ,  ,  
AL, 11, 2019091900, 03, AEMI,  48, 379N,  993W,  20,    0,   ,  34, NEQ,    0,    0,    0,    0,    0,    0,   0,   0,   0,    ,   0,    ,   0,   0,           ,  ,  
AL, 11, 2019091712, 03, AVNI,   0, 282N,  960W,  25,    0,   ,  34, NEQ,    0,    0,    0,    0,    0,    0,   0,   0,   0,    ,   0,    ,   0,   0,           ,  ,  
AL, 11, 2019091712, 03, AVNI,  12, 294N,  957W,  24,    0,   ,  34, NEQ,    0,    0,    0,    0,    0,    0,   0,   0,   0,    ,   0,    ,   0,   0,           ,  ,  
AL, 11, 2019091712, 03, AVNI,  24, 303N,  959W,  21,    0,   ,  34, NEQ,    0,    0,    0,    0,    0,    0,   0,   0,   0,    ,   0,    ,   0,   0,           ,  ,  
AL, 11, 2019091712, 03, AVNI,  36, 309N,  961W,  21,    0,   ,  34, NEQ,    0,    0,    0,    0,    0,    0,   0,   0,   0,    ,   0,    ,   0,   0,           ,  ,  
AL, 11, 2019091712, 03, AVNI,  48, 317N,  967W,  19,    0,   ,  34, NEQ,    0,    0,    0,    0,    0,    0,   0,   0,   0,    ,   0,    ,   0,   0,           ,  ,  
AL, 11, 2019091712, 03, AVNI,  60, 333N,  976W,  16,    0,   ,  34, NEQ,    0,    0,    0,    0,    0,    0,   0,   0,   0,    ,   0,    ,   0,   0,           ,  ,  
AL, 11, 2019091712, 03, AVNI,  72, 349N,  985W,  12,    0,   ,  34, NEQ,    0,    0,    0,    0,    0,    0,   0,   0,   0,    ,   0,    ,   0,   0,           ,  ,  
AL, 11, 2019091718, 03, AVNI,   0, 290N,  953W,  35,    0,   ,  34, NEQ,    0,    0,    0,    0,    0,    0,   0,   0,   0,    ,   0,    ,   0,   0,           ,  ,  
AL, 11, 2019091718, 03, AVNI,  12, 301N,  952W,  33,    0,   ,  34, NEQ,    0,    0,    0,    0,    0,    0,   0,   0,   0,    ,   0,    ,   0,   0,           ,  ,  
AL, 11, 2019091718, 03, AVNI,  24, 310N,  955W,  32,    0,   ,  34, NEQ,    0,    0,    0,    0,    0,    0,   0,   0,   0,    ,   0,    ,   0,   0,           ,  ,  
AL, 11, 2019091718, 03, AVNI,  36, 318N,  962W,  28,    0,   ,  34, NEQ,    0,    0,    0,    0,    0,    0,   0,   0,   0,    ,   0,    ,   0,   0,           ,  ,  
AL, 11, 2019091718, 03, AVNI,  48, 325N,  969W,  24,    0,   ,  34, NEQ,    0,    0,    0,    0,    0,    0,   0,   0,   0,    ,   0,    ,   0,   0,           ,  ,  
AL, 11, 2019091800, 03, AVNI,   0, 296N,  955W,  30,    0,   ,  34, NEQ,    0,    0,    0,    0,    0,    0,   0,   0,   0,    ,   0,    ,   0,   0,           ,  ,  
AL, 11, 2019091800, 03, AVNI,  12, 307N,  956W,  24,    0,   ,  34, NEQ,    0,    0,    0,    0,    0,    0,   0,   0,   0,    ,   0,    ,   0,   0,           ,  ,  
AL, 11, 2019091800, 03, AVNI,  24, 315N,  958W,  19,    0,   ,  34, NEQ,    0,    0,    0,    0,    0,    0,   0,   0,   0,    ,   0,    ,   0,   0,           ,  ,  
AL, 11, 2019091800, 03, AVNI,  36, 323N,  960W,  18,    0,   ,  34, NEQ,    0,    0,    0,    0,    0,    0,   0,   0,   0,    ,   0,    ,   0,   0,           ,  ,  
AL, 11, 2019091800, 03, AVNI,  48, 339N,  965W,  17,    0,   ,  34, NEQ,    0,    0,    0,    0,    0,    0,   0,   0,   0,    ,   0,    ,   0,   0,           ,  ,  
AL, 11, 2019091800, 03, AVNI,  60, 354N,  971W,  15,    0,   ,  34, NEQ,    0,    0,    0,    0,    0,    0,   0,   0,   0,    ,   0,    ,   0,   0,           ,  ,  
AL, 11, 2019091806, 03, AVNI,   0, 299N,  956W,  25,    0,   ,  34, NEQ,    0,    0,    0,    0,    0,    0,   0,   0,   0,    ,   0,    ,   0,   0,           ,  ,  
AL, 11, 2019091806, 03, AVNI,  12, 308N,  955W,  21,    0,   ,  34, NEQ,    0,    0,    0,    0,    0,    0,   0,   0,   0,    ,   0,    ,   0,   0,           ,  ,  
AL, 11, 2019091806, 03, AVNI,  24, 317N,  959W,  18,    0,   ,  34, NEQ,    0,    0,    0,    0,    0,    0,   0,   0,   0,    ,   0,    ,   0,   0,           ,  ,  
AL, 11, 2019091806, 03, AVNI,  36, 326N,  959W,  16,    0,   ,  34, NEQ,    0,    0,    0,    0,    0,    0,   0,   0,   0,    ,   0,    ,   0,   0,           ,  ,  
AL, 11, 2019091806, 03, AVNI,  48, 335N,  959W,  14,    0,   ,  34, NEQ,    0,    0,    0,    0,    0,    0,   0,   0,   0,    ,   0,    ,   0,   0,           ,  ,  
AL, 11, 2019091812, 03, AVNI,   0, 304N,  956W,  25,    0,   ,  34, NEQ,    0,    0,    0,    0,    0,    0,   0,   0,   0,    ,   0,    ,   0,   0,           ,  ,  
AL, 11, 2019091812, 03, AVNI,  12, 312N,  956W,  23,    0,   ,  34, NEQ,    0,    0,    0,    0,    0,    0,   0,   0,   0,    ,   0,    ,   0,   0,           ,  ,  
AL, 11, 2019091812, 03, AVNI,  24, 321N,  960W,  19,    0,   ,  34, NEQ,    0,    0,    0,    0,    0,    0,   0,   0,   0,    ,   0,    ,   0,   0,           ,  ,  
AL, 11, 2019091812, 03, AVNI,  36, 335N,  963W,  17,    0,   ,  34, NEQ,    0,    0,    0,    0,    0,    0,   0,   0,   0,    ,   0,    ,   0,   0,           ,  ,  
AL, 11, 2019091812, 03, AVNI,  48, 348N,  965W,  15,    0,   ,  34, NEQ,    0,    0,    0,    0,    0,    0,   0,   0,   0,    ,   0,    ,   0,   0,           ,  ,  
AL, 11, 2019091818, 03, AVNI,   0, 306N,  950W,  25,    0,   ,  34, NEQ,    0,    0,    0,    0,    0,    0,   0,   0,   0,    ,   0,    ,   0,   0,           ,  ,  
AL, 11, 2019091818, 03, AVNI,  12, 313N,  951W,  23,    0,   ,  34, NEQ,    0,    0,    0,    0,    0,    0,   0,   0,   0,    ,   0,    ,   0,   0,           ,  ,  
AL, 11, 2019091818, 03, AVNI,  24, 323N,  952W,  21,    0,   ,  34, NEQ,    0,    0,    0,    0,    0,    0,   0,   0,   0,    ,   0,    ,   0,   0,           ,  ,  
AL, 11, 2019091818, 03, AVNI,  36, 339N,  964W,  17,    0,   ,  34, NEQ,    0,    0,    0,    0,    0,    0,   0,   0,   0,    ,   0,    ,   0,   0,           ,  ,  
AL, 11, 2019091818, 03, AVNI,  48, 356N,  977W,  13,    0,   ,  34, NEQ,    0,    0,    0,    0,    0,    0,   0,   0,   0,    ,   0,    ,   0,   0,           ,  ,  
AL, 11, 2019091900, 03, AVNI,   0, 311N,  948W,  25,    0,   ,  34, NEQ,    0,    0,    0,    0,    0,    0,   0,   0,   0,    ,   0,    ,   0,   0,           ,  ,  
AL, 11, 2019091900, 03, AVNI,  12, 317N,  949W,  24,    0,   ,  34, NEQ,    0,    0,    0,    0,    0,    0,   0,   0,   0,    ,   0,    ,   0,   0,           ,  ,  
AL, 11, 2019091900, 03, AVNI,  24, 328N,  953W,  21,    0,   ,  34, NEQ,    0,    0,    0,    0,    0,    0,   0,   0,   0,    ,   0,    ,   0,   0,           ,  ,  
AL, 11, 2019091900, 03, AVNI,  36, 340N,  957W,  18,    0,   ,  34, NEQ,    0,    0,    0,    0,    0,    0,   0,   0,   0,    ,   0,    ,   0,   0,           ,  ,  
AL, 11, 2019091712, 03, CEM2,   0, 282N,  960W,  25,    0,   ,  34, NEQ,    0,    0,    0,    0,    0,    0,   0,   0,   0,    ,   0,    ,   0,   0,           ,  ,  
AL, 11, 2019091712, 03, CEM2,  12, 292N,  961W,  24,    0,   ,  34, NEQ,    0,    0,    0,    0,    0,    0,   0,   0,   0,    ,   0,    ,   0,   0,           ,  ,  
AL, 11, 2019091712, 03, CEM2,  24, 303N,  960W,  23,    0,   ,  34, NEQ,    0,    0,    0,    0,    0,    0,   0,   0,   0,    ,   0,    ,   0,   0,           ,  ,  
AL, 11, 2019091712, 03, CEM2,  36, 312N,  959W,  21,    0,   ,  34, NEQ,    0,    0,    0,    0,    0,    0,   0,   0,   0,    ,   0,    ,   0,   0,           ,  ,  
AL, 11, 2019091712, 03, CEM2,  48, 321N,  959W,  21,    0,   ,  34, NEQ,    0,    0,    0,    0,    0,    0,   0,   0,   0,    ,   0,    ,   0,   0,           ,  ,  
AL, 11, 2019091712, 03, CEM2,  60, 333N,  960W,  22,    0,   ,  34, NEQ,    0,    0,    0,    0,    0,    0,   0,   0,   0,    ,   0,    ,   0,   0,           ,  ,  
AL, 11, 2019091712, 03, CEM2,  72, 349N,  957W,  21,    0,   ,  34, NEQ,    0,    0,    0,    0,    0,    0,   0,   0,   0,    ,   0,    ,   0,   0,           ,  ,  
AL, 11, 2019091712, 03, CEM2,  84, 365N,  955W,  22,    0,   ,  34, NEQ,    0,    0,    0,    0,    0,    0,   0,   0,   0,    ,   0,    ,   0,   0,           ,  ,  
AL, 11, 2019091806, 03, CEMI,   0, 299N,  956W,  25,    0,   ,  34, NEQ,    0,    0,    0,    0,    0,    0,   0,   0,   0,    ,   0,    ,   0,   0,           ,  ,  
AL, 11, 2019091806, 03, CEMI,  12, 310N,  956W,  22,    0,   ,  34, NEQ,    0,    0,    0,    0,    0,    0,   0,   0,   0,    ,   0,    ,   0,   0,           ,  ,  
AL, 11, 2019091806, 03, CEMI,  24, 318N,  956W,  20,    0,   ,  34, NEQ,    0,    0,    0,    0,    0,    0,   0,   0,   0,    ,   0,    ,   0,   0,           ,  ,  
AL, 11, 2019091806, 03, CEMI,  36, 328N,  959W,  20,    0,   ,  34, NEQ,    0,    0,    0,    0,    0,    0,   0,   0,   0,    ,   0,    ,   0,   0,           ,  ,  
AL, 11, 2019091806, 03, CEMI,  48, 346N,  961W,  20,    0,   ,  34, NEQ,    0,    0,    0,    0,    0,    0,   0,   0,   0,    ,   0,    ,   0,   0,           ,  ,  
AL, 11, 2019091806, 03, CEMI,  60, 363N,  964W,  21,    0,   ,  34, NEQ,    0,    0,    0,    0,    0,    0,   0,   0,   0,    ,   0,    ,   0,   0,           ,  ,  
AL, 11, 2019091812, 03, CEM2,   0, 304N,  956W,  25,    0,   ,  34, NEQ,    0,    0,    0,    0,    0,    0,   0,   0,   0,    ,   0,    ,   0,   0,           ,  ,  
AL, 11, 2019091812, 03, CEM2,  12, 314N,  955W,  23,    0,   ,  34, NEQ,    0,    0,    0,    0,    0,    0,   0,   0,   0,    ,   0,    ,   0,   0,           ,  ,  
AL, 11, 2019091812, 03, CEM2,  24, 322N,  957W,  22,    0,   ,  34, NEQ,    0,    0,    0,    0,    0,    0,   0,   0,   0,    ,   0,    ,   0,   0,           ,  ,  
AL, 11, 2019091812, 03, CEM2,  36, 335N,  960W,  22,    0,   ,  34, NEQ,    0,    0,    0,    0,    0,    0,   0,   0,   0,    ,   0,    ,   0,   0,           ,  ,  
AL, 11, 2019091812, 03, CEM2,  48, 358N,  961W,  22,    0,   ,  34, NEQ,    0,    0,    0,    0,    0,    0,   0,   0,   0,    ,   0,    ,   0,   0,           ,  ,  
AL, 11, 2019091812, 03, CEM2,  60, 380N,  963W,  22,    0,   ,  34, NEQ,    0,    0,    0,    0,    0,    0,   0,   0,   0,    ,   0,    ,   0,   0,           ,  ,  
AL, 11, 2019091818, 03, CEMI,   0, 306N,  950W,  25,    0,   ,  34, NEQ,    0,    0,    0,    0,    0,    0,   0,   0,   0,    ,   0,    ,   0,   0,           ,  ,  
AL, 11, 2019091818, 03, CEMI,  12, 314N,  951W,  22,    0,   ,  34, NEQ,    0,    0,    0,    0,    0,    0,   0,   0,   0,    ,   0,    ,   0,   0,           ,  ,  
AL, 11, 2019091818, 03, CEMI,  24, 324N,  954W,  22,    0,   ,  34, NEQ,    0,    0,    0,    0,    0,    0,   0,   0,   0,    ,   0,    ,   0,   0,           ,  ,  
AL, 11, 2019091818, 03, CEMI,  36, 337N,  958W,  23,    0,   ,  34, NEQ,    0,    0,    0,    0,    0,    0,   0,   0,   0,    ,   0,    ,   0,   0,           ,  ,  
AL, 11, 2019091818, 03, CEMI,  48, 351N,  962W,  24,    0,   ,  34, NEQ,    0,    0,    0,    0,    0,    0,   0,   0,   0,    ,   0,    ,   0,   0,           ,  ,  
AL, 11, 2019091900, 03, CEM2,   0, 311N,  948W,  25,    0,   ,  34, NEQ,    0,    0,    0,    0,    0,    0,   0,   0,   0,    ,   0,    ,   0,   0,           ,  ,  
AL, 11, 2019091900, 03, CEM2,  12, 319N,  950W,  23,    0,   ,  34, NEQ,    0,    0,    0,    0,    0,    0,   0,   0,   0,    ,   0,    ,   0,   0,           ,  ,  
AL, 11, 2019091900, 03, CEM2,  24, 331N,  954W,  24,    0,   ,  34, NEQ,    0,    0,    0,    0,    0,    0,   0,   0,   0,    ,   0,    ,   0,   0,           ,  ,  
AL, 11, 2019091900, 03, CEM2,  36, 347N,  958W,  25,    0,   ,  34, NEQ,    0,    0,    0,    0,    0,    0,   0,   0,   0,    ,   0,    ,   0,   0,           ,  ,  
AL, 11, 2019091900, 03, CEM2,  48, 362N,  961W,  24,    0,   ,  34, NEQ,    0,    0,    0,    0,    0,    0,   0,   0,   0,    ,   0,    ,   0,   0,           ,  ,  
AL, 11, 2019091800, 03, CTCI,   0, 296N,  955W,  30,    0,   ,  34, NEQ,    0,    0,    0,    0,    0,    0,   0,   0,   0,    ,   0,    ,   0,   0,           ,  ,  
AL, 11, 2019091800, 03, CTCI,  12, 304N,  953W,  25,    0,   ,  34, NEQ,    0,    0,    0,    0,    0,    0,   0,   0,   0,    ,   0,    ,   0,   0,           ,  ,  
AL, 11, 2019091800, 03, CTCI,  24, 310N,  948W,  23,    0,   ,  34, NEQ,    0,    0,    0,    0,    0,    0,   0,   0,   0,    ,   0,    ,   0,   0,           ,  ,  
AL, 11, 2019091800, 03, CTCI,  36, 315N,  945W,  22,    0,   ,  34, NEQ,    0,    0,    0,    0,    0,    0,   0,   0,   0,    ,   0,    ,   0,   0,           ,  ,  
AL, 11, 2019091800, 03, CTCI,  48, 324N,  946W,  19,    0,   ,  34, NEQ,    0,    0,    0,    0,    0,    0,   0,   0,   0,    ,   0,    ,   0,   0,           ,  ,  
AL, 11, 2019091800, 03, CTCI,  60, 340N,  951W,  14,    0,   ,  34, NEQ,    0,    0,    0,    0,    0,    0,   0,   0,   0,    ,   0,    ,   0,   0,           ,  ,  
AL, 11, 2019091800, 03, CTCI,  72, 357N,  955W,  10,    0,   ,  34, NEQ,    0,    0,    0,    0,    0,    0,   0,   0,   0,    ,   0,    ,   0,   0,           ,  ,  
AL, 11, 2019091806, 03, CTCI,   0, 299N,  956W,  25,    0,   ,  34, NEQ,    0,    0,    0,    0,    0,    0,   0,   0,   0,    ,   0,    ,   0,   0,           ,  ,  
AL, 11, 2019091806, 03, CTCI,  12, 308N,  952W,  22,    0,   ,  34, NEQ,    0,    0,    0,    0,    0,    0,   0,   0,   0,    ,   0,    ,   0,   0,           ,  ,  
AL, 11, 2019091806, 03, CTCI,  24, 316N,  950W,  16,    0,   ,  34, NEQ,    0,    0,    0,    0,    0,    0,   0,   0,   0,    ,   0,    ,   0,   0,           ,  ,  
AL, 11, 2019091806, 03, CTCI,  36, 321N,  950W,  16,    0,   ,  34, NEQ,    0,    0,    0,    0,    0,    0,   0,   0,   0,    ,   0,    ,   0,   0,           ,  ,  
AL, 11, 2019091806, 03, CTCI,  48, 331N,  949W,  17,    0,   ,  34, NEQ,    0,    0,    0,    0,    0,    0,   0,   0,   0,    ,   0,    ,   0,   0,           ,  ,  
AL, 11, 2019091806, 03, CTCI,  60, 341N,  948W,  18,    0,   ,  34, NEQ,    0,    0,    0,    0,    0,    0,   0,   0,   0,    ,   0,    ,   0,   0,           ,  ,  
AL, 11, 2019091812, 03, CTCI,   0, 304N,  956W,  25,    0,   ,  34, NEQ,    0,    0,    0,    0,    0,    0,   0,   0,   0,    ,   0,    ,   0,   0,           ,  ,  
AL, 11, 2019091812, 03, CTCI,  12, 311N,  951W,  21,    0,   ,  34, NEQ,    0,    0,    0,    0,    0,    0,   0,   0,   0,    ,   0,    ,   0,   0,           ,  ,  
AL, 11, 2019091812, 03, CTCI,  24, 318N,  951W,  19,    0,   ,  34, NEQ,    0,    0,    0,    0,    0,    0,   0,   0,   0,    ,   0,    ,   0,   0,           ,  ,  
AL, 11, 2019091812, 03, CTCI,  36, 329N,  955W,  17,    0,   ,  34, NEQ,    0,    0,    0,    0,    0,    0,   0,   0,   0,    ,   0,    ,   0,   0,           ,  ,  
AL, 11, 2019091812, 03, CTCI,  48, 351N,  957W,  15,    0,   ,  34, NEQ,    0,    0,    0,    0,    0,    0,   0,   0,   0,    ,   0,    ,   0,   0,           ,  ,  
AL, 11, 2019091812, 03, CTCI,  60, 372N,  959W,  12,    0,   ,  34, NEQ,    0,    0,    0,    0,    0,    0,   0,   0,   0,    ,   0,    ,   0,   0,           ,  ,  
AL, 11, 2019091818, 03, CTCI,   0, 306N,  950W,  25,    0,   ,  34, NEQ,    0,    0,    0,    0,    0,    0,   0,   0,   0,    ,   0,    ,   0,   0,           ,  ,  
AL, 11, 2019091818, 03, CTCI,  12, 312N,  945W,  21,    0,   ,  34, NEQ,    0,    0,    0,    0,    0,    0,   0,   0,   0,    ,   0,    ,   0,   0,           ,  ,  
AL, 11, 2019091818, 03, CTCI,  24, 319N,  946W,  18,    0,   ,  34, NEQ,    0,    0,    0,    0,    0,    0,   0,   0,   0,    ,   0,    ,   0,   0,           ,  ,  
AL, 11, 2019091818, 03, CTCI,  36, 333N,  953W,  15,    0,   ,  34, NEQ,    0,    0,    0,    0,    0,    0,   0,   0,   0,    ,   0,    ,   0,   0,           ,  ,  
AL, 11, 2019091818, 03, CTCI,  48, 346N,  960W,  12,    0,   ,  34, NEQ,    0,    0,    0,    0,    0,    0,   0,   0,   0,    ,   0,    ,   0,   0,           ,  ,  
AL, 11, 2019091900, 03, CTC2,   0, 311N,  948W,  25,    0,   ,  34, NEQ,    0,    0,    0,    0,    0,    0,   0,   0,   0,    ,   0,    ,   0,   0,           ,  ,  
AL, 11, 2019091900, 03, CTC2,  12, 317N,  946W,  22,    0,   ,  34, NEQ,    0,    0,    0,    0,    0,    0,   0,   0,   0,    ,   0,    ,   0,   0,           ,  ,  
AL, 11, 2019091900, 03, CTC2,  24, 327N,  950W,  18,    0,   ,  34, NEQ,    0,    0,    0,    0,    0,    0,   0,   0,   0,    ,   0,    ,   0,   0,           ,  ,  
AL, 11, 2019091900, 03, CTC2,  36, 344N,  957W,  17,    0,   ,  34, NEQ,    0,    0,    0,    0,    0,    0,   0,   0,   0,    ,   0,    ,   0,   0,           ,  ,  
AL, 11, 2019091900, 03, CTC2,  48, 361N,  964W,  18,    0,   ,  34, NEQ,    0,    0,    0,    0,    0,    0,   0,   0,   0,    ,   0,    ,   0,   0,           ,  ,  
AL, 11, 2019091700, 03, DSHP,   0, 273N,  950W,  20,    0, TD,   0,    ,    0,    0,    0,    0, 
AL, 11, 2019091700, 03, DSHP,  12, 280N,  960W,  23,    0, TD,   0,    ,    0,    0,    0,    0, 
AL, 11, 2019091700, 03, DSHP,  24, 290N,  961W,  24,    0, TD,   0,    ,    0,    0,    0,    0, 
AL, 11, 2019091700, 03, DSHP,  36, 300N,  962W,  26,    0, TD,   0,    ,    0,    0,    0,    0, 
AL, 11, 2019091700, 03, DSHP,  48, 309N,  962W,  26,    0, TD,   0,    ,    0,    0,    0,    0, 
AL, 11, 2019091700, 03, DSHP,  60, 319N,  966W,  27,    0, TD,   0,    ,    0,    0,    0,    0, 
AL, 11, 2019091700, 03, DSHP,  72, 335N,  965W,  27,    0, TD,   0,    ,    0,    0,    0,    0, 
AL, 11, 2019091700, 03, DSHP,  84, 361N,  956W,  27,    0, TD,   0,    ,    0,    0,    0,    0, 
AL, 11, 2019091700, 03, DSHP,  96, 397N,  931W,  28,    0, TD,   0,    ,    0,    0,    0,    0, 
AL, 11, 2019091700, 03, DSHP, 108, 439N,  888W,  29,    0, TD,   0,    ,    0,    0,    0,    0, 
AL, 11, 2019091700, 03, DSHP, 120, 484N,  826W,  30,    0, TD,   0,    ,    0,    0,    0,    0, 
AL, 11, 2019091706, 03, DSHP,   0, 278N,  960W,  20,    0, TD,   0,    ,    0,    0,    0,    0, 
AL, 11, 2019091706, 03, DSHP,  12, 287N,  968W,  21,    0, TD,   0,    ,    0,    0,    0,    0, 
AL, 11, 2019091706, 03, DSHP,  24, 294N,  970W,  25,    0, TD,   0,    ,    0,    0,    0,    0, 
AL, 11, 2019091706, 03, DSHP,  36, 302N,  971W,  26,    0, TD,   0,    ,    0,    0,    0,    0, 
AL, 11, 2019091706, 03, DSHP,  48, 308N,  971W,  26,    0, TD,   0,    ,    0,    0,    0,    0, 
AL, 11, 2019091706, 03, DSHP,  60, 318N,  976W,  27,    0, TD,   0,    ,    0,    0,    0,    0, 
AL, 11, 2019091706, 03, DSHP,  72, 336N,  973W,  27,    0, TD,   0,    ,    0,    0,    0,    0, 
AL, 11, 2019091706, 03, DSHP,  84, 366N,  957W,  27,    0, TD,   0,    ,    0,    0,    0,    0, 
AL, 11, 2019091706, 03, DSHP,  96, 404N,  926W,  28,    0, TD,   0,    ,    0,    0,    0,    0, 
AL, 11, 2019091706, 03, DSHP, 108, 453N,  871W,  29,    0, TD,   0,    ,    0,    0,    0,    0, 
AL, 11, 2019091706, 03, DSHP, 120, 508N,  791W,  30,    0, TD,   0,    ,    0,    0,    0,    0, 
AL, 11, 2019091712, 03, DSHP,   0, 282N,  960W,  25,    0, TD,   0,    ,    0,    0,    0,    0, 
AL, 11, 2019091712, 03, DSHP,  12, 292N,  963W,  25,    0, TD,   0,    ,    0,    0,    0,    0, 
AL, 11, 2019091712, 03, DSHP,  24, 300N,  966W,  26,    0, TD,   0,    ,    0,    0,    0,    0, 
AL, 11, 2019091712, 03, DSHP,  36, 307N,  966W,  27,    0, TD,   0,    ,    0,    0,    0,    0, 
AL, 11, 2019091712, 03, DSHP,  48, 313N,  970W,  27,    0, TD,   0,    ,    0,    0,    0,    0, 
AL, 11, 2019091712, 03, DSHP,  60, 326N,  972W,  27,    0, TD,   0,    ,    0,    0,    0,    0, 
AL, 11, 2019091712, 03, DSHP,  72, 349N,  967W,  27,    0, TD,   0,    ,    0,    0,    0,    0, 
AL, 11, 2019091712, 03, DSHP,  84, 383N,  946W,  27,    0, TD,   0,    ,    0,    0,    0,    0, 
AL, 11, 2019091712, 03, DSHP,  96, 426N,  907W,  29,    0, TD,   0,    ,    0,    0,    0,    0, 
AL, 11, 2019091712, 03, DSHP, 108, 479N,  851W,  30,    0, TD,   0,    ,    0,    0,    0,    0, 
AL, 11, 2019091712, 03, DSHP, 120, 532N,  767W,  30,    0, TD,   0,    ,    0,    0,    0,    0, 
AL, 11, 2019091718, 03, DSHP,   0, 290N,  952W,  35,    0, TS,   0,    ,    0,    0,    0,    0, 
AL, 11, 2019091718, 03, DSHP,  12, 299N,  951W,  30,    0, TD,   0,    ,    0,    0,    0,    0, 
AL, 11, 2019091718, 03, DSHP,  24, 306N,  952W,  28,    0, TD,   0,    ,    0,    0,    0,    0, 
AL, 11, 2019091718, 03, DSHP,  36, 312N,  956W,  27,    0, TD,   0,    ,    0,    0,    0,    0, 
AL, 11, 2019091718, 03, DSHP,  48, 319N,  960W,  27,    0, TD,   0,    ,    0,    0,    0,    0, 
AL, 11, 2019091718, 03, DSHP,  60, 327N,  963W,  27,    0, TD,   0,    ,    0,    0,    0,    0, 
AL, 11, 2019091718, 03, DSHP,  72,   0N,    0E,  27,    0,   ,   0,    ,    0,    0,    0,    0, 
AL, 11, 2019091718, 03, DSHP,  84,   0N,    0E,  27,    0,   ,   0,    ,    0,    0,    0,    0, 
AL, 11, 2019091718, 03, DSHP,  96,   0N,    0E,  27,    0,   ,   0,    ,    0,    0,    0,    0, 
AL, 11, 2019091718, 03, DSHP, 108,   0N,    0E,  27,    0,   ,   0,    ,    0,    0,    0,    0, 
AL, 11, 2019091718, 03, DSHP, 120,   0N,    0E,  27,    0,   ,   0,    ,    0,    0,    0,    0, 
AL, 11, 2019091718, 03, DSHP, 132,   0N,    0E,  27,    0,   ,   0,    ,    0,    0,    0,    0, 
AL, 11, 2019091718, 03, DSHP, 144,   0N,    0E,  27,    0,   ,   0,    ,    0,    0,    0,    0, 
AL, 11, 2019091718, 03, DSHP, 156,   0N,    0E,  27,    0,   ,   0,    ,    0,    0,    0,    0, 
AL, 11, 2019091718, 03, DSHP, 168,   0N,    0E,  27,    0,   ,   0,    ,    0,    0,    0,    0, 
AL, 11, 2019091800, 03, DSHP,   0, 296N,  955W,  30,    0, TD,   0,    ,    0,    0,    0,    0, 
AL, 11, 2019091800, 03, DSHP,  12, 305N,  955W,  28,    0, TD,   0,    ,    0,    0,    0,    0, 
AL, 11, 2019091800, 03, DSHP,  24, 312N,  956W,  27,    0, TD,   0,    ,    0,    0,    0,    0, 
AL, 11, 2019091800, 03, DSHP,  36, 318N,  956W,  27,    0, TD,   0,    ,    0,    0,    0,    0, 
AL, 11, 2019091800, 03, DSHP,  48, 325N,  958W,  27,    0, TD,   0,    ,    0,    0,    0,    0, 
AL, 11, 2019091800, 03, DSHP,  60,   0N,    0E,  27,    0,   ,   0,    ,    0,    0,    0,    0, 
AL, 11, 2019091800, 03, DSHP,  72,   0N,    0E,  27,    0,   ,   0,    ,    0,    0,    0,    0, 
AL, 11, 2019091800, 03, DSHP,  84,   0N,    0E,  27,    0,   ,   0,    ,    0,    0,    0,    0, 
AL, 11, 2019091800, 03, DSHP,  96,   0N,    0E,  27,    0,   ,   0,    ,    0,    0,    0,    0, 
AL, 11, 2019091800, 03, DSHP, 108,   0N,    0E,  27,    0,   ,   0,    ,    0,    0,    0,    0, 
AL, 11, 2019091800, 03, DSHP, 120,   0N,    0E,  27,    0,   ,   0,    ,    0,    0,    0,    0, 
AL, 11, 2019091800, 03, DSHP, 132,   0N,    0E,  27,    0,   ,   0,    ,    0,    0,    0,    0, 
AL, 11, 2019091800, 03, DSHP, 144,   0N,    0E,  27,    0,   ,   0,    ,    0,    0,    0,    0, 
AL, 11, 2019091800, 03, DSHP, 156,   0N,    0E,  27,    0,   ,   0,    ,    0,    0,    0,    0, 
AL, 11, 2019091800, 03, DSHP, 168,   0N,    0E,  27,    0,   ,   0,    ,    0,    0,    0,    0, 
AL, 11, 2019091806, 03, DSHP,   0, 299N,  956W,  25,    0, TD,   0,    ,    0,    0,    0,    0, 
AL, 11, 2019091806, 03, DSHP,  12, 307N,  956W,  26,    0, TD,   0,    ,    0,    0,    0,    0, 
AL, 11, 2019091806, 03, DSHP,  24, 314N,  956W,  27,    0, TD,   0,    ,    0,    0,    0,    0, 
AL, 11, 2019091806, 03, DSHP,  36, 321N,  958W,  27,    0, TD,   0,    ,    0,    0,    0,    0, 
AL, 11, 2019091806, 03, DSHP,  48, 329N,  961W,  27,    0, TD,   0,    ,    0,    0,    0,    0, 
AL, 11, 2019091806, 03, DSHP,  60,   0N,    0E,  27,    0,   ,   0,    ,    0,    0,    0,    0, 
AL, 11, 2019091806, 03, DSHP,  72,   0N,    0E,  27,    0,   ,   0,    ,    0,    0,    0,    0, 
AL, 11, 2019091806, 03, DSHP,  84,   0N,    0E,  27,    0,   ,   0,    ,    0,    0,    0,    0, 
AL, 11, 2019091806, 03, DSHP,  96,   0N,    0E,  27,    0,   ,   0,    ,    0,    0,    0,    0, 
AL, 11, 2019091806, 03, DSHP, 108,   0N,    0E,  27,    0,   ,   0,    ,    0,    0,    0,    0, 
AL, 11, 2019091806, 03, DSHP, 120,   0N,    0E,  27,    0,   ,   0,    ,    0,    0,    0,    0, 
AL, 11, 2019091806, 03, DSHP, 132,   0N,    0E,  27,    0,   ,   0,    ,    0,    0,    0,    0, 
AL, 11, 2019091806, 03, DSHP, 144,   0N,    0E,  27,    0,   ,   0,    ,    0,    0,    0,    0, 
AL, 11, 2019091806, 03, DSHP, 156,   0N,    0E,  27,    0,   ,   0,    ,    0,    0,    0,    0, 
AL, 11, 2019091806, 03, DSHP, 168,   0N,    0E,  27,    0,   ,   0,    ,    0,    0,    0,    0, 
AL, 11, 2019091812, 03, DSHP,   0, 304N,  956W,  25,    0, TD,   0,    ,    0,    0,    0,    0, 
AL, 11, 2019091812, 03, DSHP,  12, 313N,  956W,  26,    0, TD,   0,    ,    0,    0,    0,    0, 
AL, 11, 2019091812, 03, DSHP,  24, 324N,  960W,  27,    0, TD,   0,    ,    0,    0,    0,    0, 
AL, 11, 2019091812, 03, DSHP,  36, 336N,  963W,  27,    0, TD,   0,    ,    0,    0,    0,    0, 
AL, 11, 2019091812, 03, DSHP,  48, 349N,  966W,  27,    0, TD,   0,    ,    0,    0,    0,    0, 
AL, 11, 2019091812, 03, DSHP,  60, 362N,  970W,  27,    0, EX,   0,    ,    0,    0,    0,    0, 
AL, 11, 2019091812, 03, DSHP,  72,   0N,    0E,  27,    0,   ,   0,    ,    0,    0,    0,    0, 
AL, 11, 2019091812, 03, DSHP,  84,   0N,    0E,  27,    0,   ,   0,    ,    0,    0,    0,    0, 
AL, 11, 2019091812, 03, DSHP,  96,   0N,    0E,  27,    0,   ,   0,    ,    0,    0,    0,    0, 
AL, 11, 2019091812, 03, DSHP, 108,   0N,    0E,  27,    0,   ,   0,    ,    0,    0,    0,    0, 
AL, 11, 2019091812, 03, DSHP, 120,   0N,    0E,  27,    0,   ,   0,    ,    0,    0,    0,    0, 
AL, 11, 2019091812, 03, DSHP, 132,   0N,    0E,  27,    0,   ,   0,    ,    0,    0,    0,    0, 
AL, 11, 2019091812, 03, DSHP, 144,   0N,    0E,  27,    0,   ,   0,    ,    0,    0,    0,    0, 
AL, 11, 2019091812, 03, DSHP, 156,   0N,    0E,  27,    0,   ,   0,    ,    0,    0,    0,    0, 
AL, 11, 2019091812, 03, DSHP, 168,   0N,    0E,  27,    0,   ,   0,    ,    0,    0,    0,    0, 
AL, 11, 2019091818, 03, DSHP,   0, 306N,  950W,  25,    0, TD,   0,    ,    0,    0,    0,    0, 
AL, 11, 2019091818, 03, DSHP,  12, 313N,  948W,  26,    0, TD,   0,    ,    0,    0,    0,    0, 
AL, 11, 2019091818, 03, DSHP,  24, 315N,  951W,  27,    0, TD,   0,    ,    0,    0,    0,    0, 
AL, 11, 2019091818, 03, DSHP,  36, 314N,  956W,  27,    0, TD,   0,    ,    0,    0,    0,    0, 
AL, 11, 2019091818, 03, DSHP,  48, 313N,  961W,  27,    0, TD,   0,    ,    0,    0,    0,    0, 
AL, 11, 2019091818, 03, DSHP,  60,   0N,    0E,  27,    0,   ,   0,    ,    0,    0,    0,    0, 
AL, 11, 2019091818, 03, DSHP,  72,   0N,    0E,  27,    0,   ,   0,    ,    0,    0,    0,    0, 
AL, 11, 2019091818, 03, DSHP,  84,   0N,    0E,  27,    0,   ,   0,    ,    0,    0,    0,    0, 
AL, 11, 2019091818, 03, DSHP,  96,   0N,    0E,  27,    0,   ,   0,    ,    0,    0,    0,    0, 
AL, 11, 2019091818, 03, DSHP, 108,   0N,    0E,  27,    0,   ,   0,    ,    0,    0,    0,    0, 
AL, 11, 2019091818, 03, DSHP, 120,   0N,    0E,  27,    0,   ,   0,    ,    0,    0,    0,    0, 
AL, 11, 2019091818, 03, DSHP, 132,   0N,    0E,  27,    0,   ,   0,    ,    0,    0,    0,    0, 
AL, 11, 2019091818, 03, DSHP, 144,   0N,    0E,  27,    0,   ,   0,    ,    0,    0,    0,    0, 
AL, 11, 2019091818, 03, DSHP, 156,   0N,    0E,  27,    0,   ,   0,    ,    0,    0,    0,    0, 
AL, 11, 2019091818, 03, DSHP, 168,   0N,    0E,  27,    0,   ,   0,    ,    0,    0,    0,    0, 
AL, 11, 2019091900, 03, DSHP,   0, 311N,  947W,  25,    0, TD,   0,    ,    0,    0,    0,    0, 
AL, 11, 2019091900, 03, DSHP,  12, 318N,  951W,  26,    0, TD,   0,    ,    0,    0,    0,    0, 
AL, 11, 2019091900, 03, DSHP,  24, 322N,  956W,  27,    0, TD,   0,    ,    0,    0,    0,    0, 
AL, 11, 2019091900, 03, DSHP,  36, 326N,  962W,  27,    0, TD,   0,    ,    0,    0,    0,    0, 
AL, 11, 2019091900, 03, DSHP,  48,   0N,    0E,  27,    0,   ,   0,    ,    0,    0,    0,    0, 
AL, 11, 2019091900, 03, DSHP,  60,   0N,    0E,  27,    0,   ,   0,    ,    0,    0,    0,    0, 
AL, 11, 2019091900, 03, DSHP,  72,   0N,    0E,  27,    0,   ,   0,    ,    0,    0,    0,    0, 
AL, 11, 2019091900, 03, DSHP,  84,   0N,    0E,  27,    0,   ,   0,    ,    0,    0,    0,    0, 
AL, 11, 2019091900, 03, DSHP,  96,   0N,    0E,  27,    0,   ,   0,    ,    0,    0,    0,    0, 
AL, 11, 2019091900, 03, DSHP, 108,   0N,    0E,  27,    0,   ,   0,    ,    0,    0,    0,    0, 
AL, 11, 2019091900, 03, DSHP, 120,   0N,    0E,  27,    0,   ,   0,    ,    0,    0,    0,    0, 
AL, 11, 2019091900, 03, DSHP, 132,   0N,    0E,  27,    0,   ,   0,    ,    0,    0,    0,    0, 
AL, 11, 2019091900, 03, DSHP, 144,   0N,    0E,  27,    0,   ,   0,    ,    0,    0,    0,    0, 
AL, 11, 2019091900, 03, DSHP, 156,   0N,    0E,  27,    0,   ,   0,    ,    0,    0,    0,    0, 
AL, 11, 2019091900, 03, DSHP, 168,   0N,    0E,  27,    0,   ,   0,    ,    0,    0,    0,    0, 
AL, 11, 2019091906, 03, DSHP,   0, 311N,  953W,  25,    0, TD,   0,    ,    0,    0,    0,    0, 
AL, 11, 2019091906, 03, DSHP,  12, 316N,  958W,  26,    0, TD,   0,    ,    0,    0,    0,    0, 
AL, 11, 2019091906, 03, DSHP,  24, 323N,  967W,  27,    0, TD,   0,    ,    0,    0,    0,    0, 
AL, 11, 2019091906, 03, DSHP,  36, 330N,  976W,  27,    0, TD,   0,    ,    0,    0,    0,    0, 
AL, 11, 2019091906, 03, DSHP,  48,   0N,    0E,  27,    0,   ,   0,    ,    0,    0,    0,    0, 
AL, 11, 2019091906, 03, DSHP,  60,   0N,    0E,  27,    0,   ,   0,    ,    0,    0,    0,    0, 
AL, 11, 2019091906, 03, DSHP,  72,   0N,    0E,  27,    0,   ,   0,    ,    0,    0,    0,    0, 
AL, 11, 2019091906, 03, DSHP,  84,   0N,    0E,  27,    0,   ,   0,    ,    0,    0,    0,    0, 
AL, 11, 2019091906, 03, DSHP,  96,   0N,    0E,  27,    0,   ,   0,    ,    0,    0,    0,    0, 
AL, 11, 2019091912, 03, DSHP,   0, 303N,  952W,  25,    0, TD,   0,    ,    0,    0,    0,    0, 
AL, 11, 2019091912, 03, DSHP,  12, 311N,  956W,  26,    0, TD,   0,    ,    0,    0,    0,    0, 
AL, 11, 2019091912, 03, DSHP,  24,   0N,    0E,  27,    0,   ,   0,    ,    0,    0,    0,    0, 
AL, 11, 2019091912, 03, DSHP,  36,   0N,    0E,  27,    0,   ,   0,    ,    0,    0,    0,    0, 
AL, 11, 2019091912, 03, DSHP,  48,   0N,    0E,  27,    0,   ,   0,    ,    0,    0,    0,    0, 
AL, 11, 2019091912, 03, DSHP,  60,   0N,    0E,  27,    0,   ,   0,    ,    0,    0,    0,    0, 
AL, 11, 2019091912, 03, DSHP,  72,   0N,    0E,  27,    0,   ,   0,    ,    0,    0,    0,    0, 
AL, 11, 2019091912, 03, DSHP,  84,   0N,    0E,  27,    0,   ,   0,    ,    0,    0,    0,    0, 
AL, 11, 2019091912, 03, DSHP,  96,   0N,    0E,  27,    0,   ,   0,    ,    0,    0,    0,    0, 
AL, 11, 2019091912, 03, DSHP, 108,   0N,    0E,  27,    0,   ,   0,    ,    0,    0,    0,    0, 
AL, 11, 2019091912, 03, DSHP, 120,   0N,    0E,  27,    0,   ,   0,    ,    0,    0,    0,    0, 
AL, 11, 2019091912, 03, DSHP, 132,   0N,    0E,  27,    0,   ,   0,    ,    0,    0,    0,    0, 
AL, 11, 2019091912, 03, DSHP, 144,   0N,    0E,  27,    0,   ,   0,    ,    0,    0,    0,    0, 
AL, 11, 2019091912, 03, DSHP, 156,   0N,    0E,  27,    0,   ,   0,    ,    0,    0,    0,    0, 
AL, 11, 2019091912, 03, DSHP, 168,   0N,    0E,  27,    0,   ,   0,    ,    0,    0,    0,    0, 
AL, 11, 2019091712, 03, EMN2,   0, 282N,  960W,  25,    0,   ,  34, NEQ,    0,    0,    0,    0, 
AL, 11, 2019091712, 03, EMN2,  12, 292N,  959W,  24,    0,   ,  34, NEQ,    0,    0,    0,    0, 
AL, 11, 2019091712, 03, EMN2,  24, 300N,  958W,  24,    0,   ,  34, NEQ,    0,    0,    0,    0, 
AL, 11, 2019091712, 03, EMN2,  36, 305N,  957W,  23,    0,   ,  34, NEQ,    0,    0,    0,    0, 
AL, 11, 2019091712, 03, EMN2,  48, 309N,  959W,  24,    0,   ,  34, NEQ,    0,    0,    0,    0, 
AL, 11, 2019091712, 03, EMN2,  60, 317N,  963W,  23,    0,   ,  34, NEQ,    0,    0,    0,    0, 
AL, 11, 2019091712, 03, EMN2,  72, 332N,  967W,  23,    0,   ,  34, NEQ,    0,    0,    0,    0, 
AL, 11, 2019091712, 03, EMN2,  84, 353N,  964W,  22,    0,   ,  34, NEQ,    0,    0,    0,    0, 
AL, 11, 2019091712, 03, EMN2,  96, 383N,  945W,  22,    0,   ,  34, NEQ,    0,    0,    0,    0, 
AL, 11, 2019091712, 03, EMN2, 108, 414N,  907W,  23,    0,   ,  34, NEQ,    0,    0,    0,    0, 
AL, 11, 2019091712, 03, EMN2, 120, 444N,  869W,  22,    0,   ,  34, NEQ,    0,    0,    0,    0, 
AL, 11, 2019091718, 03, EMN3,   0, 290N,  953W,  35,    0,   ,  34, NEQ,    0,    0,    0,    0, 
AL, 11, 2019091718, 03, EMN3,  12, 299N,  952W,  34,    0,   ,  34, NEQ,    0,    0,    0,    0, 
AL, 11, 2019091718, 03, EMN3,  24, 305N,  951W,  34,    0,   ,  34, NEQ,    0,    0,    0,    0, 
AL, 11, 2019091718, 03, EMN3,  36, 310N,  952W,  33,    0,   ,  34, NEQ,    0,    0,    0,    0, 
AL, 11, 2019091718, 03, EMN3,  48, 317N,  955W,  33,    0,   ,  34, NEQ,    0,    0,    0,    0, 
AL, 11, 2019091718, 03, EMN3,  60, 328N,  958W,  33,    0,   ,  34, NEQ,    0,    0,    0,    0, 
AL, 11, 2019091718, 03, EMN3,  72, 346N,  958W,  32,    0,   ,  34, NEQ,    0,    0,    0,    0, 
AL, 11, 2019091718, 03, EMN3,  84, 372N,  946W,  32,    0,   ,  34, NEQ,    0,    0,    0,    0, 
AL, 11, 2019091718, 03, EMN3,  96, 402N,  918W,  32,    0,   ,  34, NEQ,    0,    0,    0,    0, 
AL, 11, 2019091718, 03, EMN3, 108, 432N,  881W,  32,    0,   ,  34, NEQ,    0,    0,    0,    0, 
AL, 11, 2019091718, 03, EMN3, 120, 462N,  845W,  32,    0,   ,  34, NEQ,    0,    0,    0,    0, 
AL, 11, 2019091812, 03, EMN2,   0, 304N,  956W,  25,    0,   ,  34, NEQ,    0,    0,    0,    0, 
AL, 11, 2019091812, 03, EMN2,  12, 311N,  955W,  22,    0,   ,  34, NEQ,    0,    0,    0,    0, 
AL, 11, 2019091812, 03, EMN2,  24, 317N,  955W,  21,    0,   ,  34, NEQ,    0,    0,    0,    0, 
AL, 11, 2019091812, 03, EMN2,  36, 325N,  958W,  22,    0,   ,  34, NEQ,    0,    0,    0,    0, 
AL, 11, 2019091812, 03, EMN2,  48, 339N,  959W,  21,    0,   ,  34, NEQ,    0,    0,    0,    0, 
AL, 11, 2019091812, 03, EMN2,  60, 360N,  954W,  20,    0,   ,  34, NEQ,    0,    0,    0,    0, 
AL, 11, 2019091812, 03, EMN2,  72, 389N,  931W,  20,    0,   ,  34, NEQ,    0,    0,    0,    0, 
AL, 11, 2019091812, 03, EMN2,  84, 423N,  892W,  23,    0,   ,  34, NEQ,    0,    0,    0,    0, 
AL, 11, 2019091812, 03, EMN2,  96, 456N,  852W,  20,    0,   ,  34, NEQ,    0,    0,    0,    0, 
AL, 11, 2019091818, 03, EMN3,   0, 306N,  950W,  25,    0,   ,  34, NEQ,    0,    0,    0,    0, 
AL, 11, 2019091818, 03, EMN3,  12, 313N,  950W,  23,    0,   ,  34, NEQ,    0,    0,    0,    0, 
AL, 11, 2019091818, 03, EMN3,  24, 320N,  951W,  22,    0,   ,  34, NEQ,    0,    0,    0,    0, 
AL, 11, 2019091818, 03, EMN3,  36, 331N,  953W,  22,    0,   ,  34, NEQ,    0,    0,    0,    0, 
AL, 11, 2019091818, 03, EMN3,  48, 349N,  950W,  21,    0,   ,  34, NEQ,    0,    0,    0,    0, 
AL, 11, 2019091818, 03, EMN3,  60, 374N,  935W,  21,    0,   ,  34, NEQ,    0,    0,    0,    0, 
AL, 11, 2019091818, 03, EMN3,  72, 405N,  905W,  22,    0,   ,  34, NEQ,    0,    0,    0,    0, 
AL, 11, 2019091818, 03, EMN3,  84, 438N,  866W,  22,    0,   ,  34, NEQ,    0,    0,    0,    0, 
AL, 11, 2019091818, 03, EMN3,  96, 471N,  828W,  22,    0,   ,  34, NEQ,    0,    0,    0,    0, 
AL, 11, 2019091900, 03, EMN2,   0, 311N,  948W,  25,    0,   ,  34, NEQ,    0,    0,    0,    0, 
AL, 11, 2019091900, 03, EMN2,  12, 318N,  949W,  22,    0,   ,  34, NEQ,    0,    0,    0,    0, 
AL, 11, 2019091900, 03, EMN2,  24, 326N,  953W,  23,    0,   ,  34, NEQ,    0,    0,    0,    0, 
AL, 11, 2019091900, 03, EMN2,  36, 342N,  957W,  23,    0,   ,  34, NEQ,    0,    0,    0,    0, 
AL, 11, 2019091900, 03, EMN2,  48, 363N,  949W,  23,    0,   ,  34, NEQ,    0,    0,    0,    0, 
AL, 11, 2019091900, 03, EMN2,  60, 395N,  923W,  23,    0,   ,  34, NEQ,    0,    0,    0,    0, 
AL, 11, 2019091900, 03, EMN2,  72, 427N,  897W,  23,    0,   ,  34, NEQ,    0,    0,    0,    0, 
AL, 11, 2019091906, 03, EMN3,   0, 311N,  954W,  25,    0,   ,  34, NEQ,    0,    0,    0,    0, 
AL, 11, 2019091906, 03, EMN3,  12, 319N,  956W,  23,    0,   ,  34, NEQ,    0,    0,    0,    0, 
AL, 11, 2019091906, 03, EMN3,  24, 331N,  960W,  24,    0,   ,  34, NEQ,    0,    0,    0,    0, 
AL, 11, 2019091906, 03, EMN3,  36, 350N,  957W,  24,    0,   ,  34, NEQ,    0,    0,    0,    0, 
AL, 11, 2019091906, 03, EMN3,  48, 376N,  940W,  24,    0,   ,  34, NEQ,    0,    0,    0,    0, 
AL, 11, 2019091906, 03, EMN3,  60, 407N,  915W,  24,    0,   ,  34, NEQ,    0,    0,    0,    0, 
AL, 11, 2019091906, 03, EMN3,  72, 439N,  890W,  24,    0,   ,  34, NEQ,    0,    0,    0,    0, 
AL, 11, 2019091912, 03, EMN2,   0, 303N,  953W,  25,    0,   ,  34, NEQ,    0,    0,    0,    0, 
AL, 11, 2019091912, 03, EMN2,  12, 313N,  957W,  24,    0,   ,  34, NEQ,    0,    0,    0,    0, 
AL, 11, 2019091912, 03, EMN2,  24, 329N,  960W,  24,    0,   ,  34, NEQ,    0,    0,    0,    0, 
AL, 11, 2019091912, 03, EMN2,  36, 351N,  955W,  24,    0,   ,  34, NEQ,    0,    0,    0,    0, 
AL, 11, 2019091912, 03, EMN2,  48, 372N,  950W,  24,    0,   ,  34, NEQ,    0,    0,    0,    0, 
AL, 11, 2019091918, 03, EMN3,   0, 311N,  958W,  15,    0,   ,  34, NEQ,    0,    0,    0,    0, 
AL, 11, 2019091918, 03, EMN3,  12, 324N,  961W,  14,    0,   ,  34, NEQ,    0,    0,    0,    0, 
AL, 11, 2019091918, 03, EMN3,  24, 343N,  960W,  14,    0,   ,  34, NEQ,    0,    0,    0,    0, 
AL, 11, 2019091918, 03, EMN3,  36, 364N,  956W,  14,    0,   ,  34, NEQ,    0,    0,    0,    0, 
AL, 11, 2019091918, 03, EMN3,  48, 385N,  951W,  14,    0,   ,  34, NEQ,    0,    0,    0,    0, 
AL, 11, 2019091712, 03, EGR2,   0, 282N,  960W,  25,    0,   ,  34, NEQ,    0,    0,    0,    0,    0,    0,   0,   0,   0,    ,   0,    ,   0,   0,           ,  ,  
AL, 11, 2019091806, 03, EGRI,   0, 299N,  956W,  25,    0,   ,  34, NEQ,    0,    0,    0,    0,    0,    0,   0,   0,   0,    ,   0,    ,   0,   0,           ,  ,  
AL, 11, 2019091812, 03, EGR2,   0, 304N,  956W,  25,    0,   ,  34, NEQ,    0,    0,    0,    0,    0,    0,   0,   0,   0,    ,   0,    ,   0,   0,           ,  ,  
AL, 11, 2019091712, 03, EMX2,   0, 282N,  960W,  25,    0,   ,  34, NEQ,    0,    0,    0,    0,    0,    0,   0,   0,   0,    ,   0,    ,   0,   0,           ,  ,  
AL, 11, 2019091712, 03, EMX2,  12, 292N,  959W,  24,    0,   ,  34, NEQ,    0,    0,    0,    0,    0,    0,   0,   0,   0,    ,   0,    ,   0,   0,           ,  ,  
AL, 11, 2019091712, 03, EMX2,  24, 300N,  958W,  25,    0,   ,  34, NEQ,    0,    0,    0,    0,    0,    0,   0,   0,   0,    ,   0,    ,   0,   0,           ,  ,  
AL, 11, 2019091712, 03, EMX2,  36, 306N,  957W,  25,    0,   ,  34, NEQ,    0,    0,    0,    0,    0,    0,   0,   0,   0,    ,   0,    ,   0,   0,           ,  ,  
AL, 11, 2019091712, 03, EMX2,  48, 311N,  957W,  25,    0,   ,  34, NEQ,    0,    0,    0,    0,    0,    0,   0,   0,   0,    ,   0,    ,   0,   0,           ,  ,  
AL, 11, 2019091712, 03, EMX2,  60, 320N,  962W,  24,    0,   ,  34, NEQ,    0,    0,    0,    0,    0,    0,   0,   0,   0,    ,   0,    ,   0,   0,           ,  ,  
AL, 11, 2019091712, 03, EMX2,  72, 334N,  966W,  25,    0,   ,  34, NEQ,    0,    0,    0,    0,    0,    0,   0,   0,   0,    ,   0,    ,   0,   0,           ,  ,  
AL, 11, 2019091712, 03, EMX2,  84, 357N,  967W,  23,    0,   ,  34, NEQ,    0,    0,    0,    0,    0,    0,   0,   0,   0,    ,   0,    ,   0,   0,           ,  ,  
AL, 11, 2019091712, 03, EMX2,  96, 379N,  968W,  25,    0,   ,  34, NEQ,    0,    0,    0,    0,    0,    0,   0,   0,   0,    ,   0,    ,   0,   0,           ,  ,  
AL, 11, 2019091806, 03, EMXI,   0, 299N,  956W,  25,    0,   ,  34, NEQ,    0,    0,    0,    0,    0,    0,   0,   0,   0,    ,   0,    ,   0,   0,           ,  ,  
AL, 11, 2019091806, 03, EMXI,  12, 308N,  954W,  20,    0,   ,  34, NEQ,    0,    0,    0,    0,    0,    0,   0,   0,   0,    ,   0,    ,   0,   0,           ,  ,  
AL, 11, 2019091806, 03, EMXI,  24, 315N,  953W,  19,    0,   ,  34, NEQ,    0,    0,    0,    0,    0,    0,   0,   0,   0,    ,   0,    ,   0,   0,           ,  ,  
AL, 11, 2019091806, 03, EMXI,  36, 322N,  954W,  17,    0,   ,  34, NEQ,    0,    0,    0,    0,    0,    0,   0,   0,   0,    ,   0,    ,   0,   0,           ,  ,  
AL, 11, 2019091806, 03, EMXI,  48, 333N,  958W,  19,    0,   ,  34, NEQ,    0,    0,    0,    0,    0,    0,   0,   0,   0,    ,   0,    ,   0,   0,           ,  ,  
AL, 11, 2019091806, 03, EMXI,  60, 350N,  960W,  17,    0,   ,  34, NEQ,    0,    0,    0,    0,    0,    0,   0,   0,   0,    ,   0,    ,   0,   0,           ,  ,  
AL, 11, 2019091806, 03, EMXI,  72, 380N,  957W,  13,    0,   ,  34, NEQ,    0,    0,    0,    0,    0,    0,   0,   0,   0,    ,   0,    ,   0,   0,           ,  ,  
AL, 11, 2019091806, 03, EMXI,  84, 410N,  953W,  10,    0,   ,  34, NEQ,    0,    0,    0,    0,    0,    0,   0,   0,   0,    ,   0,    ,   0,   0,           ,  ,  
AL, 11, 2019091812, 03, EMX2,   0, 304N,  956W,  25,    0,   ,  34, NEQ,    0,    0,    0,    0,    0,    0,   0,   0,   0,    ,   0,    ,   0,   0,           ,  ,  
AL, 11, 2019091812, 03, EMX2,  12, 312N,  954W,  21,    0,   ,  34, NEQ,    0,    0,    0,    0,    0,    0,   0,   0,   0,    ,   0,    ,   0,   0,           ,  ,  
AL, 11, 2019091812, 03, EMX2,  24, 318N,  954W,  20,    0,   ,  34, NEQ,    0,    0,    0,    0,    0,    0,   0,   0,   0,    ,   0,    ,   0,   0,           ,  ,  
AL, 11, 2019091812, 03, EMX2,  36, 327N,  957W,  20,    0,   ,  34, NEQ,    0,    0,    0,    0,    0,    0,   0,   0,   0,    ,   0,    ,   0,   0,           ,  ,  
AL, 11, 2019091812, 03, EMX2,  48, 340N,  960W,  21,    0,   ,  34, NEQ,    0,    0,    0,    0,    0,    0,   0,   0,   0,    ,   0,    ,   0,   0,           ,  ,  
AL, 11, 2019091812, 03, EMX2,  60, 363N,  960W,  18,    0,   ,  34, NEQ,    0,    0,    0,    0,    0,    0,   0,   0,   0,    ,   0,    ,   0,   0,           ,  ,  
AL, 11, 2019091812, 03, EMX2,  72, 387N,  959W,  21,    0,   ,  34, NEQ,    0,    0,    0,    0,    0,    0,   0,   0,   0,    ,   0,    ,   0,   0,           ,  ,  
AL, 11, 2019091818, 03, EMXI,   0, 306N,  950W,  25,    0,   ,  34, NEQ,    0,    0,    0,    0,    0,    0,   0,   0,   0,    ,   0,    ,   0,   0,           ,  ,  
AL, 11, 2019091818, 03, EMXI,  12, 312N,  949W,  22,    0,   ,  34, NEQ,    0,    0,    0,    0,    0,    0,   0,   0,   0,    ,   0,    ,   0,   0,           ,  ,  
AL, 11, 2019091818, 03, EMXI,  24, 316N,  950W,  22,    0,   ,  34, NEQ,    0,    0,    0,    0,    0,    0,   0,   0,   0,    ,   0,    ,   0,   0,           ,  ,  
AL, 11, 2019091818, 03, EMXI,  36, 325N,  958W,  24,    0,   ,  34, NEQ,    0,    0,    0,    0,    0,    0,   0,   0,   0,    ,   0,    ,   0,   0,           ,  ,  
AL, 11, 2019091818, 03, EMXI,  48, 333N,  966W,  25,    0,   ,  34, NEQ,    0,    0,    0,    0,    0,    0,   0,   0,   0,    ,   0,    ,   0,   0,           ,  ,  
AL, 11, 2019091900, 03, EMX2,   0, 311N,  948W,  25,    0,   ,  34, NEQ,    0,    0,    0,    0,    0,    0,   0,   0,   0,    ,   0,    ,   0,   0,           ,  ,  
AL, 11, 2019091900, 03, EMX2,  12, 315N,  948W,  24,    0,   ,  34, NEQ,    0,    0,    0,    0,    0,    0,   0,   0,   0,    ,   0,    ,   0,   0,           ,  ,  
AL, 11, 2019091900, 03, EMX2,  24, 321N,  952W,  24,    0,   ,  34, NEQ,    0,    0,    0,    0,    0,    0,   0,   0,   0,    ,   0,    ,   0,   0,           ,  ,  
AL, 11, 2019091900, 03, EMX2,  36, 327N,  956W,  24,    0,   ,  34, NEQ,    0,    0,    0,    0,    0,    0,   0,   0,   0,    ,   0,    ,   0,   0,           ,  ,  
AL, 11, 2019091800, 03, HMNI,   0, 296N,  955W,  30,    0,   ,  34, NEQ,    0,    0,    0,    0,    0,    0,   0,   0,   0,    ,   0,    ,   0,   0,           ,  ,  
AL, 11, 2019091800, 03, HMNI,  12, 304N,  958W,  25,    0,   ,  34, NEQ,    0,    0,    0,    0,    0,    0,   0,   0,   0,    ,   0,    ,   0,   0,           ,  ,  
AL, 11, 2019091800, 03, HMNI,  24, 309N,  959W,  25,    0,   ,  34, NEQ,    0,    0,    0,    0,    0,    0,   0,   0,   0,    ,   0,    ,   0,   0,           ,  ,  
AL, 11, 2019091800, 03, HMNI,  36, 314N,  966W,  23,    0,   ,  34, NEQ,    0,    0,    0,    0,    0,    0,   0,   0,   0,    ,   0,    ,   0,   0,           ,  ,  
AL, 11, 2019091800, 03, HMNI,  48, 317N,  972W,  19,    0,   ,  34, NEQ,    0,    0,    0,    0,    0,    0,   0,   0,   0,    ,   0,    ,   0,   0,           ,  ,  
AL, 11, 2019091800, 03, HMNI,  60, 320N,  978W,  15,    0,   ,  34, NEQ,    0,    0,    0,    0,    0,    0,   0,   0,   0,    ,   0,    ,   0,   0,           ,  ,  
AL, 11, 2019091806, 03, HMNI,   0, 299N,  956W,  25,    0,   ,  34, NEQ,    0,    0,    0,    0,    0,    0,   0,   0,   0,    ,   0,    ,   0,   0,           ,  ,  
AL, 11, 2019091806, 03, HMNI,  12, 306N,  957W,  21,    0,   ,  34, NEQ,    0,    0,    0,    0,    0,    0,   0,   0,   0,    ,   0,    ,   0,   0,           ,  ,  
AL, 11, 2019091806, 03, HMNI,  24, 312N,  959W,  19,    0,   ,  34, NEQ,    0,    0,    0,    0,    0,    0,   0,   0,   0,    ,   0,    ,   0,   0,           ,  ,  
AL, 11, 2019091806, 03, HMNI,  36, 318N,  968W,  17,    0,   ,  34, NEQ,    0,    0,    0,    0,    0,    0,   0,   0,   0,    ,   0,    ,   0,   0,           ,  ,  
AL, 11, 2019091806, 03, HMNI,  48, 331N,  974W,  17,    0,   ,  34, NEQ,    0,    0,    0,    0,    0,    0,   0,   0,   0,    ,   0,    ,   0,   0,           ,  ,  
AL, 11, 2019091806, 03, HMNI,  60, 366N,  977W,  19,    0,   ,  34, NEQ,    0,    0,    0,    0,    0,    0,   0,   0,   0,    ,   0,    ,   0,   0,           ,  ,  
AL, 11, 2019091806, 03, HMNI,  72, 401N,  980W,  22,    0,   ,  34, NEQ,    0,    0,    0,    0,    0,    0,   0,   0,   0,    ,   0,    ,   0,   0,           ,  ,  
AL, 11, 2019091812, 03, HMNI,   0, 304N,  956W,  25,    0,   ,  34, NEQ,    0,    0,    0,    0,    0,    0,   0,   0,   0,    ,   0,    ,   0,   0,           ,  ,  
AL, 11, 2019091812, 03, HMNI,  12, 311N,  957W,  22,    0,   ,  34, NEQ,    0,    0,    0,    0,    0,    0,   0,   0,   0,    ,   0,    ,   0,   0,           ,  ,  
AL, 11, 2019091812, 03, HMNI,  24, 317N,  961W,  20,    0,   ,  34, NEQ,    0,    0,    0,    0,    0,    0,   0,   0,   0,    ,   0,    ,   0,   0,           ,  ,  
AL, 11, 2019091812, 03, HMNI,  36, 328N,  977W,  16,    0,   ,  34, NEQ,    0,    0,    0,    0,    0,    0,   0,   0,   0,    ,   0,    ,   0,   0,           ,  ,  
AL, 11, 2019091812, 03, HMNI,  48, 339N,  992W,  12,    0,   ,  34, NEQ,    0,    0,    0,    0,    0,    0,   0,   0,   0,    ,   0,    ,   0,   0,           ,  ,  
AL, 11, 2019091818, 03, HMNI,   0, 306N,  950W,  25,    0,   ,  34, NEQ,    0,    0,    0,    0,    0,    0,   0,   0,   0,    ,   0,    ,   0,   0,           ,  ,  
AL, 11, 2019091818, 03, HMNI,  12, 313N,  951W,  24,    0,   ,  34, NEQ,    0,    0,    0,    0,    0,    0,   0,   0,   0,    ,   0,    ,   0,   0,           ,  ,  
AL, 11, 2019091818, 03, HMNI,  24, 320N,  958W,  23,    0,   ,  34, NEQ,    0,    0,    0,    0,    0,    0,   0,   0,   0,    ,   0,    ,   0,   0,           ,  ,  
AL, 11, 2019091818, 03, HMNI,  36, 336N,  974W,  19,    0,   ,  34, NEQ,    0,    0,    0,    0,    0,    0,   0,   0,   0,    ,   0,    ,   0,   0,           ,  ,  
AL, 11, 2019091818, 03, HMNI,  48, 363N,  980W,  20,    0,   ,  34, NEQ,    0,    0,    0,    0,    0,    0,   0,   0,   0,    ,   0,    ,   0,   0,           ,  ,  
AL, 11, 2019091818, 03, HMNI,  60, 390N,  986W,  22,    0,   ,  34, NEQ,    0,    0,    0,    0,    0,    0,   0,   0,   0,    ,   0,    ,   0,   0,           ,  ,  
AL, 11, 2019091900, 03, HMN2,   0, 311N,  948W,  25,    0,   ,  34, NEQ,    0,    0,    0,    0,    0,    0,   0,   0,   0,    ,   0,    ,   0,   0,           ,  ,  
AL, 11, 2019091900, 03, HMN2,  12, 317N,  952W,  25,    0,   ,  34, NEQ,    0,    0,    0,    0,    0,    0,   0,   0,   0,    ,   0,    ,   0,   0,           ,  ,  
AL, 11, 2019091900, 03, HMN2,  24, 328N,  964W,  23,    0,   ,  34, NEQ,    0,    0,    0,    0,    0,    0,   0,   0,   0,    ,   0,    ,   0,   0,           ,  ,  
AL, 11, 2019091900, 03, HMN2,  36, 351N,  976W,  20,    0,   ,  34, NEQ,    0,    0,    0,    0,    0,    0,   0,   0,   0,    ,   0,    ,   0,   0,           ,  ,  
AL, 11, 2019091900, 03, HMN2,  48, 374N,  989W,  23,    0,   ,  34, NEQ,    0,    0,    0,    0,    0,    0,   0,   0,   0,    ,   0,    ,   0,   0,           ,  ,  
AL, 11, 2019091718, 03, HWFI,   0, 290N,  953W,  35,    0,   ,  34, NEQ,    0,    0,    0,    0,    0,    0,   0,   0,   0,    ,   0,    ,   0,   0,           ,  ,  
AL, 11, 2019091718, 03, HWFI,  12, 301N,  952W,  33,    0,   ,  34, NEQ,    0,    0,    0,    0,    0,    0,   0,   0,   0,    ,   0,    ,   0,   0,           ,  ,  
AL, 11, 2019091718, 03, HWFI,  24, 309N,  952W,  29,    0,   ,  34, NEQ,    0,    0,    0,    0,    0,    0,   0,   0,   0,    ,   0,    ,   0,   0,           ,  ,  
AL, 11, 2019091718, 03, HWFI,  36, 317N,  956W,  25,    0,   ,  34, NEQ,    0,    0,    0,    0,    0,    0,   0,   0,   0,    ,   0,    ,   0,   0,           ,  ,  
AL, 11, 2019091718, 03, HWFI,  48, 324N,  962W,  24,    0,   ,  34, NEQ,    0,    0,    0,    0,    0,    0,   0,   0,   0,    ,   0,    ,   0,   0,           ,  ,  
AL, 11, 2019091718, 03, HWFI,  60, 336N,  967W,  24,    0,   ,  34, NEQ,    0,    0,    0,    0,    0,    0,   0,   0,   0,    ,   0,    ,   0,   0,           ,  ,  
AL, 11, 2019091718, 03, HWFI,  72, 358N,  967W,  26,    0,   ,  34, NEQ,    0,    0,    0,    0,    0,    0,   0,   0,   0,    ,   0,    ,   0,   0,           ,  ,  
AL, 11, 2019091718, 03, HWFI,  84, 395N,  962W,  23,    0,   ,  34, NEQ,    0,    0,    0,    0,    0,    0,   0,   0,   0,    ,   0,    ,   0,   0,           ,  ,  
AL, 11, 2019091718, 03, HWFI,  96, 436N,  951W,  19,    0,   ,  34, NEQ,    0,    0,    0,    0,    0,    0,   0,   0,   0,    ,   0,    ,   0,   0,           ,  ,  
AL, 11, 2019091718, 03, HWFI, 108, 476N,  941W,  14,    0,   ,  34, NEQ,    0,    0,    0,    0,    0,    0,   0,   0,   0,    ,   0,    ,   0,   0,           ,  ,  
AL, 11, 2019091800, 03, HWFI,   0, 296N,  955W,  30,    0,   ,  34, NEQ,    0,    0,    0,    0,    0,    0,   0,   0,   0,    ,   0,    ,   0,   0,           ,  ,  
AL, 11, 2019091800, 03, HWFI,  12, 307N,  957W,  20,    0,   ,  34, NEQ,    0,    0,    0,    0,    0,    0,   0,   0,   0,    ,   0,    ,   0,   0,           ,  ,  
AL, 11, 2019091800, 03, HWFI,  24, 316N,  960W,  16,    0,   ,  34, NEQ,    0,    0,    0,    0,    0,    0,   0,   0,   0,    ,   0,    ,   0,   0,           ,  ,  
AL, 11, 2019091800, 03, HWFI,  36, 324N,  965W,  18,    0,   ,  34, NEQ,    0,    0,    0,    0,    0,    0,   0,   0,   0,    ,   0,    ,   0,   0,           ,  ,  
AL, 11, 2019091800, 03, HWFI,  48, 335N,  968W,  18,    0,   ,  34, NEQ,    0,    0,    0,    0,    0,    0,   0,   0,   0,    ,   0,    ,   0,   0,           ,  ,  
AL, 11, 2019091800, 03, HWFI,  60, 356N,  970W,  21,    0,   ,  34, NEQ,    0,    0,    0,    0,    0,    0,   0,   0,   0,    ,   0,    ,   0,   0,           ,  ,  
AL, 11, 2019091800, 03, HWFI,  72, 385N,  967W,  20,    0,   ,  34, NEQ,    0,    0,    0,    0,    0,    0,   0,   0,   0,    ,   0,    ,   0,   0,           ,  ,  
AL, 11, 2019091800, 03, HWFI,  84, 414N,  954W,  20,    0,   ,  34, NEQ,    0,    0,    0,    0,    0,    0,   0,   0,   0,    ,   0,    ,   0,   0,           ,  ,  
AL, 11, 2019091800, 03, HWFI,  96, 442N,  931W,  23,    0,   ,  34, NEQ,    0,    0,    0,    0,    0,    0,   0,   0,   0,    ,   0,    ,   0,   0,           ,  ,  
AL, 11, 2019091800, 03, HWFI, 108, 496N,  867W,  23,    0,   ,  34, NEQ,    0,    0,    0,    0,    0,    0,   0,   0,   0,    ,   0,    ,   0,   0,           ,  ,  
AL, 11, 2019091800, 03, HWFI, 120, 555N,  790W,  21,    0,   ,  34, NEQ,    0,    0,    0,    0,    0,    0,   0,   0,   0,    ,   0,    ,   0,   0,           ,  ,  
AL, 11, 2019091800, 03, HWFI, 132, 615N,  712W,  18,    0,   ,  34, NEQ,    0,    0,    0,    0,    0,    0,   0,   0,   0,    ,   0,    ,   0,   0,           ,  ,  
AL, 11, 2019091806, 03, HWFI,   0, 299N,  956W,  25,    0,   ,  34, NEQ,    0,    0,    0,    0,    0,    0,   0,   0,   0,    ,   0,    ,   0,   0,           ,  ,  
AL, 11, 2019091806, 03, HWFI,  12, 307N,  955W,  25,    0,   ,  34, NEQ,    0,    0,    0,    0,    0,    0,   0,   0,   0,    ,   0,    ,   0,   0,           ,  ,  
AL, 11, 2019091806, 03, HWFI,  24, 315N,  956W,  23,    0,   ,  34, NEQ,    0,    0,    0,    0,    0,    0,   0,   0,   0,    ,   0,    ,   0,   0,           ,  ,  
AL, 11, 2019091806, 03, HWFI,  36, 323N,  962W,  23,    0,   ,  34, NEQ,    0,    0,    0,    0,    0,    0,   0,   0,   0,    ,   0,    ,   0,   0,           ,  ,  
AL, 11, 2019091806, 03, HWFI,  48, 338N,  970W,  21,    0,   ,  34, NEQ,    0,    0,    0,    0,    0,    0,   0,   0,   0,    ,   0,    ,   0,   0,           ,  ,  
AL, 11, 2019091806, 03, HWFI,  60, 363N,  967W,  21,    0,   ,  34, NEQ,    0,    0,    0,    0,    0,    0,   0,   0,   0,    ,   0,    ,   0,   0,           ,  ,  
AL, 11, 2019091806, 03, HWFI,  72, 412N,  965W,  21,    0,   ,  34, NEQ,    0,    0,    0,    0,    0,    0,   0,   0,   0,    ,   0,    ,   0,   0,           ,  ,  
AL, 11, 2019091806, 03, HWFI,  84, 461N,  962W,  21,    0,   ,  34, NEQ,    0,    0,    0,    0,    0,    0,   0,   0,   0,    ,   0,    ,   0,   0,           ,  ,  
AL, 11, 2019091812, 03, HWFI,   0, 304N,  956W,  25,    0,   ,  34, NEQ,    0,    0,    0,    0,    0,    0,   0,   0,   0,    ,   0,    ,   0,   0,           ,  ,  
AL, 11, 2019091812, 03, HWFI,  12, 312N,  956W,  25,    0,   ,  34, NEQ,    0,    0,    0,    0,    0,    0,   0,   0,   0,    ,   0,    ,   0,   0,           ,  ,  
AL, 11, 2019091812, 03, HWFI,  24, 318N,  960W,  25,    0,   ,  34, NEQ,    0,    0,    0,    0,    0,    0,   0,   0,   0,    ,   0,    ,   0,   0,           ,  ,  
AL, 11, 2019091812, 03, HWFI,  36, 329N,  966W,  23,    0,   ,  34, NEQ,    0,    0,    0,    0,    0,    0,   0,   0,   0,    ,   0,    ,   0,   0,           ,  ,  
AL, 11, 2019091812, 03, HWFI,  48, 347N,  966W,  23,    0,   ,  34, NEQ,    0,    0,    0,    0,    0,    0,   0,   0,   0,    ,   0,    ,   0,   0,           ,  ,  
AL, 11, 2019091812, 03, HWFI,  60, 381N,  960W,  21,    0,   ,  34, NEQ,    0,    0,    0,    0,    0,    0,   0,   0,   0,    ,   0,    ,   0,   0,           ,  ,  
AL, 11, 2019091812, 03, HWFI,  72, 439N,  952W,  19,    0,   ,  34, NEQ,    0,    0,    0,    0,    0,    0,   0,   0,   0,    ,   0,    ,   0,   0,           ,  ,  
AL, 11, 2019091812, 03, HWFI,  84, 496N,  945W,  18,    0,   ,  34, NEQ,    0,    0,    0,    0,    0,    0,   0,   0,   0,    ,   0,    ,   0,   0,           ,  ,  
AL, 11, 2019091818, 03, HWFI,   0, 306N,  950W,  25,    0,   ,  34, NEQ,    0,    0,    0,    0,    0,    0,   0,   0,   0,    ,   0,    ,   0,   0,           ,  ,  
AL, 11, 2019091818, 03, HWFI,  12, 315N,  952W,  24,    0,   ,  34, NEQ,    0,    0,    0,    0,    0,    0,   0,   0,   0,    ,   0,    ,   0,   0,           ,  ,  
AL, 11, 2019091818, 03, HWFI,  24, 321N,  957W,  25,    0,   ,  34, NEQ,    0,    0,    0,    0,    0,    0,   0,   0,   0,    ,   0,    ,   0,   0,           ,  ,  
AL, 11, 2019091818, 03, HWFI,  36, 333N,  963W,  21,    0,   ,  34, NEQ,    0,    0,    0,    0,    0,    0,   0,   0,   0,    ,   0,    ,   0,   0,           ,  ,  
AL, 11, 2019091818, 03, HWFI,  48, 351N,  960W,  22,    0,   ,  34, NEQ,    0,    0,    0,    0,    0,    0,   0,   0,   0,    ,   0,    ,   0,   0,           ,  ,  
AL, 11, 2019091818, 03, HWFI,  60, 381N,  948W,  22,    0,   ,  34, NEQ,    0,    0,    0,    0,    0,    0,   0,   0,   0,    ,   0,    ,   0,   0,           ,  ,  
AL, 11, 2019091818, 03, HWFI,  72, 434N,  930W,  25,    0,   ,  34, NEQ,    0,    0,    0,    0,    0,    0,   0,   0,   0,    ,   0,    ,   0,   0,           ,  ,  
AL, 11, 2019091818, 03, HWFI,  84, 493N,  884W,  27,    0,   ,  34, NEQ,    0,    0,    0,    0,    0,    0,   0,   0,   0,    ,   0,    ,   0,   0,           ,  ,  
AL, 11, 2019091818, 03, HWFI,  96, 552N,  839W,  28,    0,   ,  34, NEQ,    0,    0,    0,    0,    0,    0,   0,   0,   0,    ,   0,    ,   0,   0,           ,  ,  
AL, 11, 2019091900, 03, HWF2,   0, 311N,  948W,  25,    0,   ,  34, NEQ,    0,    0,    0,    0,    0,    0,   0,   0,   0,    ,   0,    ,   0,   0,           ,  ,  
AL, 11, 2019091900, 03, HWF2,  12, 318N,  952W,  25,    0,   ,  34, NEQ,    0,    0,    0,    0,    0,    0,   0,   0,   0,    ,   0,    ,   0,   0,           ,  ,  
AL, 11, 2019091900, 03, HWF2,  24, 326N,  958W,  23,    0,   ,  34, NEQ,    0,    0,    0,    0,    0,    0,   0,   0,   0,    ,   0,    ,   0,   0,           ,  ,  
AL, 11, 2019091900, 03, HWF2,  36, 341N,  961W,  21,    0,   ,  34, NEQ,    0,    0,    0,    0,    0,    0,   0,   0,   0,    ,   0,    ,   0,   0,           ,  ,  
AL, 11, 2019091900, 03, HWF2,  48, 363N,  954W,  22,    0,   ,  34, NEQ,    0,    0,    0,    0,    0,    0,   0,   0,   0,    ,   0,    ,   0,   0,           ,  ,  
AL, 11, 2019091900, 03, HWF2,  60, 406N,  938W,  23,    0,   ,  34, NEQ,    0,    0,    0,    0,    0,    0,   0,   0,   0,    ,   0,    ,   0,   0,           ,  ,  
AL, 11, 2019091900, 03, HWF2,  72, 464N,  909W,  27,    0,   ,  34, NEQ,    0,    0,    0,    0,    0,    0,   0,   0,   0,    ,   0,    ,   0,   0,           ,  ,  
AL, 11, 2019091900, 03, HWF2,  84, 522N,  881W,  23,    0,   ,  34, NEQ,    0,    0,    0,    0,    0,    0,   0,   0,   0,    ,   0,    ,   0,   0,           ,  ,  
AL, 11, 2019091700, 03, LGEM,   0, 273N,  950W,  20,    0, TD,   0,    ,    0,    0,    0,    0, 
AL, 11, 2019091700, 03, LGEM,  12, 280N,  960W,  21,    0, TD,   0,    ,    0,    0,    0,    0, 
AL, 11, 2019091700, 03, LGEM,  24, 290N,  961W,  22,    0, TD,   0,    ,    0,    0,    0,    0, 
AL, 11, 2019091700, 03, LGEM,  36, 300N,  962W,  25,    0, TD,   0,    ,    0,    0,    0,    0, 
AL, 11, 2019091700, 03, LGEM,  48, 309N,  962W,  26,    0, TD,   0,    ,    0,    0,    0,    0, 
AL, 11, 2019091700, 03, LGEM,  60, 319N,  966W,  27,    0, TD,   0,    ,    0,    0,    0,    0, 
AL, 11, 2019091700, 03, LGEM,  72, 335N,  965W,  27,    0, TD,   0,    ,    0,    0,    0,    0, 
AL, 11, 2019091700, 03, LGEM,  84, 361N,  956W,  27,    0, TD,   0,    ,    0,    0,    0,    0, 
AL, 11, 2019091700, 03, LGEM,  96, 397N,  931W,  28,    0, TD,   0,    ,    0,    0,    0,    0, 
AL, 11, 2019091700, 03, LGEM, 108, 439N,  888W,  29,    0, TD,   0,    ,    0,    0,    0,    0, 
AL, 11, 2019091700, 03, LGEM, 120, 484N,  826W,  30,    0, TD,   0,    ,    0,    0,    0,    0, 
AL, 11, 2019091706, 03, LGEM,   0, 278N,  960W,  20,    0, TD,   0,    ,    0,    0,    0,    0, 
AL, 11, 2019091706, 03, LGEM,  12, 287N,  968W,  21,    0, TD,   0,    ,    0,    0,    0,    0, 
AL, 11, 2019091706, 03, LGEM,  24, 294N,  970W,  25,    0, TD,   0,    ,    0,    0,    0,    0, 
AL, 11, 2019091706, 03, LGEM,  36, 302N,  971W,  26,    0, TD,   0,    ,    0,    0,    0,    0, 
AL, 11, 2019091706, 03, LGEM,  48, 308N,  971W,  27,    0, TD,   0,    ,    0,    0,    0,    0, 
AL, 11, 2019091706, 03, LGEM,  60, 318N,  976W,  27,    0, TD,   0,    ,    0,    0,    0,    0, 
AL, 11, 2019091706, 03, LGEM,  72, 336N,  973W,  27,    0, TD,   0,    ,    0,    0,    0,    0, 
AL, 11, 2019091706, 03, LGEM,  84, 366N,  957W,  27,    0, TD,   0,    ,    0,    0,    0,    0, 
AL, 11, 2019091706, 03, LGEM,  96, 404N,  926W,  29,    0, TD,   0,    ,    0,    0,    0,    0, 
AL, 11, 2019091706, 03, LGEM, 108, 453N,  871W,  29,    0, TD,   0,    ,    0,    0,    0,    0, 
AL, 11, 2019091706, 03, LGEM, 120, 508N,  791W,  30,    0, TD,   0,    ,    0,    0,    0,    0, 
AL, 11, 2019091712, 03, LGEM,   0, 282N,  960W,  25,    0, TD,   0,    ,    0,    0,    0,    0, 
AL, 11, 2019091712, 03, LGEM,  12, 292N,  963W,  25,    0, TD,   0,    ,    0,    0,    0,    0, 
AL, 11, 2019091712, 03, LGEM,  24, 300N,  966W,  26,    0, TD,   0,    ,    0,    0,    0,    0, 
AL, 11, 2019091712, 03, LGEM,  36, 307N,  966W,  27,    0, TD,   0,    ,    0,    0,    0,    0, 
AL, 11, 2019091712, 03, LGEM,  48, 313N,  970W,  27,    0, TD,   0,    ,    0,    0,    0,    0, 
AL, 11, 2019091712, 03, LGEM,  60, 326N,  972W,  27,    0, TD,   0,    ,    0,    0,    0,    0, 
AL, 11, 2019091712, 03, LGEM,  72, 349N,  967W,  27,    0, TD,   0,    ,    0,    0,    0,    0, 
AL, 11, 2019091712, 03, LGEM,  84, 383N,  946W,  27,    0, TD,   0,    ,    0,    0,    0,    0, 
AL, 11, 2019091712, 03, LGEM,  96, 426N,  907W,  29,    0, TD,   0,    ,    0,    0,    0,    0, 
AL, 11, 2019091712, 03, LGEM, 108, 479N,  851W,  30,    0, TD,   0,    ,    0,    0,    0,    0, 
AL, 11, 2019091712, 03, LGEM, 120, 532N,  767W,  30,    0, TD,   0,    ,    0,    0,    0,    0, 
AL, 11, 2019091718, 03, LGEM,   0, 290N,  952W,  35,    0, TS,   0,    ,    0,    0,    0,    0, 
AL, 11, 2019091718, 03, LGEM,  12, 299N,  951W,  30,    0, TD,   0,    ,    0,    0,    0,    0, 
AL, 11, 2019091718, 03, LGEM,  24, 306N,  952W,  28,    0, TD,   0,    ,    0,    0,    0,    0, 
AL, 11, 2019091718, 03, LGEM,  36, 312N,  956W,  27,    0, TD,   0,    ,    0,    0,    0,    0, 
AL, 11, 2019091718, 03, LGEM,  48, 319N,  960W,  27,    0, TD,   0,    ,    0,    0,    0,    0, 
AL, 11, 2019091718, 03, LGEM,  60, 327N,  963W,  27,    0, TD,   0,    ,    0,    0,    0,    0, 
AL, 11, 2019091800, 03, LGEM,   0, 296N,  955W,  30,    0, TD,   0,    ,    0,    0,    0,    0, 
AL, 11, 2019091800, 03, LGEM,  12, 305N,  955W,  28,    0, TD,   0,    ,    0,    0,    0,    0, 
AL, 11, 2019091800, 03, LGEM,  24, 312N,  956W,  27,    0, TD,   0,    ,    0,    0,    0,    0, 
AL, 11, 2019091800, 03, LGEM,  36, 318N,  956W,  27,    0, TD,   0,    ,    0,    0,    0,    0, 
AL, 11, 2019091800, 03, LGEM,  48, 325N,  958W,  27,    0, TD,   0,    ,    0,    0,    0,    0, 
AL, 11, 2019091806, 03, LGEM,   0, 299N,  956W,  25,    0, TD,   0,    ,    0,    0,    0,    0, 
AL, 11, 2019091806, 03, LGEM,  12, 307N,  956W,  26,    0, TD,   0,    ,    0,    0,    0,    0, 
AL, 11, 2019091806, 03, LGEM,  24, 314N,  956W,  27,    0, TD,   0,    ,    0,    0,    0,    0, 
AL, 11, 2019091806, 03, LGEM,  36, 321N,  958W,  27,    0, TD,   0,    ,    0,    0,    0,    0, 
AL, 11, 2019091806, 03, LGEM,  48, 329N,  961W,  27,    0, TD,   0,    ,    0,    0,    0,    0, 
AL, 11, 2019091812, 03, LGEM,   0, 304N,  956W,  25,    0, TD,   0,    ,    0,    0,    0,    0, 
AL, 11, 2019091812, 03, LGEM,  12, 313N,  956W,  26,    0, TD,   0,    ,    0,    0,    0,    0, 
AL, 11, 2019091812, 03, LGEM,  24, 324N,  960W,  27,    0, TD,   0,    ,    0,    0,    0,    0, 
AL, 11, 2019091812, 03, LGEM,  36, 336N,  963W,  27,    0, TD,   0,    ,    0,    0,    0,    0, 
AL, 11, 2019091812, 03, LGEM,  48, 349N,  966W,  27,    0, TD,   0,    ,    0,    0,    0,    0, 
AL, 11, 2019091812, 03, LGEM,  60, 362N,  970W,  27,    0, EX,   0,    ,    0,    0,    0,    0, 
AL, 11, 2019091818, 03, LGEM,   0, 306N,  950W,  25,    0, TD,   0,    ,    0,    0,    0,    0, 
AL, 11, 2019091818, 03, LGEM,  12, 313N,  948W,  26,    0, TD,   0,    ,    0,    0,    0,    0, 
AL, 11, 2019091818, 03, LGEM,  24, 315N,  951W,  27,    0, TD,   0,    ,    0,    0,    0,    0, 
AL, 11, 2019091818, 03, LGEM,  36, 314N,  956W,  27,    0, TD,   0,    ,    0,    0,    0,    0, 
AL, 11, 2019091818, 03, LGEM,  48, 313N,  961W,  27,    0, TD,   0,    ,    0,    0,    0,    0, 
AL, 11, 2019091900, 03, LGEM,   0, 311N,  947W,  25,    0, TD,   0,    ,    0,    0,    0,    0, 
AL, 11, 2019091900, 03, LGEM,  12, 318N,  951W,  26,    0, TD,   0,    ,    0,    0,    0,    0, 
AL, 11, 2019091900, 03, LGEM,  24, 322N,  956W,  27,    0, TD,   0,    ,    0,    0,    0,    0, 
AL, 11, 2019091900, 03, LGEM,  36, 326N,  962W,  27,    0, TD,   0,    ,    0,    0,    0,    0, 
AL, 11, 2019091906, 03, LGEM,   0, 311N,  953W,  25,    0, TD,   0,    ,    0,    0,    0,    0, 
AL, 11, 2019091906, 03, LGEM,  12, 316N,  958W,  26,    0, TD,   0,    ,    0,    0,    0,    0, 
AL, 11, 2019091906, 03, LGEM,  24, 323N,  967W,  27,    0, TD,   0,    ,    0,    0,    0,    0, 
AL, 11, 2019091906, 03, LGEM,  36, 330N,  976W,  27,    0, TD,   0,    ,    0,    0,    0,    0, 
AL, 11, 2019091912, 03, LGEM,   0, 303N,  952W,  25,    0, TD,   0,    ,    0,    0,    0,    0, 
AL, 11, 2019091912, 03, LGEM,  12, 311N,  956W,  26,    0, TD,   0,    ,    0,    0,    0,    0, 
AL, 11, 2019091712, 03, UEMI,   0, 282N,  960W,   0,    0,   ,  34, NEQ,    0,    0,    0,    0,    0,    0,   0,   0,   0,    ,   0,    ,   0,   0,           ,  ,  
AL, 11, 2019091712, 03, UEMI,  12, 293N,  957W,   0,    0,   ,  34, NEQ,    0,    0,    0,    0,    0,    0,   0,   0,   0,    ,   0,    ,   0,   0,           ,  ,  
AL, 11, 2019091712, 03, UEMI,  24, 301N,  956W,   0,    0,   ,  34, NEQ,    0,    0,    0,    0,    0,    0,   0,   0,   0,    ,   0,    ,   0,   0,           ,  ,  
AL, 11, 2019091712, 03, UEMI,  36, 307N,  954W,   0,    0,   ,  34, NEQ,    0,    0,    0,    0,    0,    0,   0,   0,   0,    ,   0,    ,   0,   0,           ,  ,  
AL, 11, 2019091712, 03, UEMI,  48, 313N,  953W,   0,    0,   ,  34, NEQ,    0,    0,    0,    0,    0,    0,   0,   0,   0,    ,   0,    ,   0,   0,           ,  ,  
AL, 11, 2019091712, 03, UEMI,  60, 321N,  952W,   0,    0,   ,  34, NEQ,    0,    0,    0,    0,    0,    0,   0,   0,   0,    ,   0,    ,   0,   0,           ,  ,  
AL, 11, 2019091712, 03, UEMI,  72, 331N,  954W,   0,    0,   ,  34, NEQ,    0,    0,    0,    0,    0,    0,   0,   0,   0,    ,   0,    ,   0,   0,           ,  ,  
AL, 11, 2019091712, 03, UEMI,  84, 342N,  956W,   0,    0,   ,  34, NEQ,    0,    0,    0,    0,    0,    0,   0,   0,   0,    ,   0,    ,   0,   0,           ,  ,  
AL, 11, 2019091718, 03, UEM2,   0, 290N,  953W,   0,    0,   ,  34, NEQ,    0,    0,    0,    0,    0,    0,   0,   0,   0,    ,   0,    ,   0,   0,           ,  ,  
AL, 11, 2019091718, 03, UEM2,  12, 300N,  952W,   0,    0,   ,  34, NEQ,    0,    0,    0,    0,    0,    0,   0,   0,   0,    ,   0,    ,   0,   0,           ,  ,  
AL, 11, 2019091718, 03, UEM2,  24, 307N,  950W,   0,    0,   ,  34, NEQ,    0,    0,    0,    0,    0,    0,   0,   0,   0,    ,   0,    ,   0,   0,           ,  ,  
AL, 11, 2019091718, 03, UEM2,  36, 313N,  949W,   0,    0,   ,  34, NEQ,    0,    0,    0,    0,    0,    0,   0,   0,   0,    ,   0,    ,   0,   0,           ,  ,  
AL, 11, 2019091718, 03, UEM2,  48, 319N,  948W,   0,    0,   ,  34, NEQ,    0,    0,    0,    0,    0,    0,   0,   0,   0,    ,   0,    ,   0,   0,           ,  ,  
AL, 11, 2019091718, 03, UEM2,  60, 328N,  948W,   0,    0,   ,  34, NEQ,    0,    0,    0,    0,    0,    0,   0,   0,   0,    ,   0,    ,   0,   0,           ,  ,  
AL, 11, 2019091718, 03, UEM2,  72, 337N,  948W,   0,    0,   ,  34, NEQ,    0,    0,    0,    0,    0,    0,   0,   0,   0,    ,   0,    ,   0,   0,           ,  ,  
AL, 11, 2019091800, 03, UEMI,   0, 296N,  955W,   0,    0,   ,  34, NEQ,    0,    0,    0,    0,    0,    0,   0,   0,   0,    ,   0,    ,   0,   0,           ,  ,  
AL, 11, 2019091800, 03, UEMI,  12, 307N,  957W,   0,    0,   ,  34, NEQ,    0,    0,    0,    0,    0,    0,   0,   0,   0,    ,   0,    ,   0,   0,           ,  ,  
AL, 11, 2019091800, 03, UEMI,  24, 314N,  955W,   0,    0,   ,  34, NEQ,    0,    0,    0,    0,    0,    0,   0,   0,   0,    ,   0,    ,   0,   0,           ,  ,  
AL, 11, 2019091800, 03, UEMI,  36, 319N,  954W,   0,    0,   ,  34, NEQ,    0,    0,    0,    0,    0,    0,   0,   0,   0,    ,   0,    ,   0,   0,           ,  ,  
AL, 11, 2019091800, 03, UEMI,  48, 323N,  954W,   0,    0,   ,  34, NEQ,    0,    0,    0,    0,    0,    0,   0,   0,   0,    ,   0,    ,   0,   0,           ,  ,  
AL, 11, 2019091806, 03, UEMI,   0, 299N,  956W,   0,    0,   ,  34, NEQ,    0,    0,    0,    0,    0,    0,   0,   0,   0,    ,   0,    ,   0,   0,           ,  ,  
AL, 11, 2019091806, 03, UEMI,  12, 307N,  955W,   0,    0,   ,  34, NEQ,    0,    0,    0,    0,    0,    0,   0,   0,   0,    ,   0,    ,   0,   0,           ,  ,  
AL, 11, 2019091806, 03, UEMI,  24, 313N,  952W,   0,    0,   ,  34, NEQ,    0,    0,    0,    0,    0,    0,   0,   0,   0,    ,   0,    ,   0,   0,           ,  ,  
AL, 11, 2019091806, 03, UEMI,  36, 316N,  954W,   0,    0,   ,  34, NEQ,    0,    0,    0,    0,    0,    0,   0,   0,   0,    ,   0,    ,   0,   0,           ,  ,  
AL, 11, 2019091806, 03, UEMI,  48, 319N,  956W,   0,    0,   ,  34, NEQ,    0,    0,    0,    0,    0,    0,   0,   0,   0,    ,   0,    ,   0,   0,           ,  ,  
AL, 11, 2019091812, 03, UEMI,   0, 304N,  956W,   0,    0,   ,  34, NEQ,    0,    0,    0,    0,    0,    0,   0,   0,   0,    ,   0,    ,   0,   0,           ,  ,  
AL, 11, 2019091812, 03, UEMI,  12, 311N,  951W,   0,    0,   ,  34, NEQ,    0,    0,    0,    0,    0,    0,   0,   0,   0,    ,   0,    ,   0,   0,           ,  ,  
AL, 11, 2019091812, 03, UEMI,  24, 318N,  951W,   0,    0,   ,  34, NEQ,    0,    0,    0,    0,    0,    0,   0,   0,   0,    ,   0,    ,   0,   0,           ,  ,  
AL, 11, 2019091812, 03, UEMI,  36, 324N,  953W,   0,    0,   ,  34, NEQ,    0,    0,    0,    0,    0,    0,   0,   0,   0,    ,   0,    ,   0,   0,           ,  ,  
AL, 11, 2019091812, 03, UEMI,  48, 336N,  949W,   0,    0,   ,  34, NEQ,    0,    0,    0,    0,    0,    0,   0,   0,   0,    ,   0,    ,   0,   0,           ,  ,  
AL, 11, 2019091812, 03, UEMI,  60, 349N,  945W,   0,    0,   ,  34, NEQ,    0,    0,    0,    0,    0,    0,   0,   0,   0,    ,   0,    ,   0,   0,           ,  ,  
AL, 11, 2019091818, 03, UEM2,   0, 306N,  950W,   0,    0,   ,  34, NEQ,    0,    0,    0,    0,    0,    0,   0,   0,   0,    ,   0,    ,   0,   0,           ,  ,  
AL, 11, 2019091818, 03, UEM2,  12, 314N,  947W,   0,    0,   ,  34, NEQ,    0,    0,    0,    0,    0,    0,   0,   0,   0,    ,   0,    ,   0,   0,           ,  ,  
AL, 11, 2019091818, 03, UEM2,  24, 320N,  949W,   0,    0,   ,  34, NEQ,    0,    0,    0,    0,    0,    0,   0,   0,   0,    ,   0,    ,   0,   0,           ,  ,  
AL, 11, 2019091818, 03, UEM2,  36, 328N,  948W,   0,    0,   ,  34, NEQ,    0,    0,    0,    0,    0,    0,   0,   0,   0,    ,   0,    ,   0,   0,           ,  ,  
AL, 11, 2019091818, 03, UEM2,  48, 345N,  943W,   0,    0,   ,  34, NEQ,    0,    0,    0,    0,    0,    0,   0,   0,   0,    ,   0,    ,   0,   0,           ,  ,  
AL, 11, 2019091818, 03, UEM2,  60, 361N,  938W,   0,    0,   ,  34, NEQ,    0,    0,    0,    0,    0,    0,   0,   0,   0,    ,   0,    ,   0,   0,           ,  ,  
AL, 11, 2019091900, 03, UEMI,   0, 311N,  948W,   0,    0,   ,  34, NEQ,    0,    0,    0,    0,    0,    0,   0,   0,   0,    ,   0,    ,   0,   0,           ,  ,  
